%YAML 1.1
%TAG !u! tag:unity3d.com,2011:
--- !u!74 &7400000
AnimationClip:
  m_ObjectHideFlags: 0
  m_PrefabParentObject: {fileID: 0}
  m_PrefabInternal: {fileID: 0}
  m_Name: Paralize Full Body
  serializedVersion: 6
  m_Legacy: 0
  m_Compressed: 0
  m_UseHighQualityCurve: 1
  m_RotationCurves: []
  m_CompressedRotationCurves: []
  m_PositionCurves:
  - curve:
      serializedVersion: 2
      m_Curve:
      - time: 0
        value: {x: .0700000003, y: .109999999, z: 0}
        inSlope: {x: 0, y: -.100000001, z: 0}
        outSlope: {x: 0, y: -.100000001, z: 0}
        tangentMode: 0
      - time: .300000012
        value: {x: .0700000003, y: .0799999982, z: 0}
        inSlope: {x: 0, y: 0, z: 0}
        outSlope: {x: 0, y: 0, z: 0}
        tangentMode: 0
      - time: .600000024
        value: {x: .0700000003, y: .109999999, z: 0}
        inSlope: {x: 0, y: .100000001, z: 0}
        outSlope: {x: 0, y: .100000001, z: 0}
        tangentMode: 0
      m_PreInfinity: 2
      m_PostInfinity: 2
    path: Bg/Bg1/Bg2
  m_ScaleCurves:
  - curve:
      serializedVersion: 2
      m_Curve:
      - time: 0
        value: {x: 1.25511789, y: .979863107, z: 1}
        inSlope: {x: .19309485, y: 0, z: 0}
        outSlope: {x: .19309485, y: 0, z: 0}
        tangentMode: 0
      - time: .324999988
        value: {x: 1.31787372, y: .979863107, z: 1}
        inSlope: {x: -.0175540596, y: 0, z: 0}
        outSlope: {x: -.0175540596, y: 0, z: 0}
        tangentMode: 0
      - time: .600000024
        value: {x: 1.25511789, y: .979863107, z: 1}
        inSlope: {x: -.228202969, y: 0, z: 0}
        outSlope: {x: -.228202969, y: 0, z: 0}
        tangentMode: 0
      m_PreInfinity: 2
      m_PostInfinity: 2
    path: Bg/Bg1/Bg2
  m_FloatCurves:
  - curve:
      serializedVersion: 2
      m_Curve:
      - time: 0
        value: 1
        inSlope: -.113122098
        outSlope: -.113122098
        tangentMode: 10
      - time: .324999988
        value: .963235319
        inSlope: -.113122098
        outSlope: -.113122098
        tangentMode: 10
      m_PreInfinity: 2
      m_PostInfinity: 2
    attribute: m_Color.r
    path: Bg/Bg1/Bg2
    classID: 212
    script: {fileID: 0}
  - curve:
      serializedVersion: 2
      m_Curve:
      - time: 0
        value: 1
        inSlope: -.113122098
        outSlope: -.113122098
        tangentMode: 10
      - time: .324999988
        value: .963235319
        inSlope: -.113122098
        outSlope: -.113122098
        tangentMode: 10
      m_PreInfinity: 2
      m_PostInfinity: 2
    attribute: m_Color.g
    path: Bg/Bg1/Bg2
    classID: 212
    script: {fileID: 0}
  - curve:
      serializedVersion: 2
      m_Curve:
      - time: 0
        value: 1
        inSlope: -.113122098
        outSlope: -.113122098
        tangentMode: 10
      - time: .324999988
        value: .963235319
        inSlope: -.113122098
        outSlope: -.113122098
        tangentMode: 10
      m_PreInfinity: 2
      m_PostInfinity: 2
    attribute: m_Color.b
    path: Bg/Bg1/Bg2
    classID: 212
    script: {fileID: 0}
  m_PPtrCurves:
  - curve:
    - time: 0
      value: {fileID: 21300000, guid: beb9dd999e76a43468ddae527ec7a117, type: 3}
    - time: .0500000007
      value: {fileID: 21300000, guid: 73a878bcbb1d2cc4fbc0377bad3848ff, type: 3}
    - time: .100000001
      value: {fileID: 21300000, guid: 458794443bfab554c9a4a3fb31f56c7c, type: 3}
    - time: .150000006
      value: {fileID: 21300000, guid: ded85ece192c49f42ad050c468a6b112, type: 3}
    - time: .200000003
      value: {fileID: 21300000, guid: feef271028e0eeb419ba192923c73db2, type: 3}
    - time: .25
      value: {fileID: 21300000, guid: bca424a72a5253343a58bfa433f2ddb1, type: 3}
    - time: .300000012
      value: {fileID: 21300000, guid: ba72aa5712832ef478735b4f8f7c49af, type: 3}
    - time: .349999994
      value: {fileID: 21300000, guid: 60963f6f055572a4cb5dd3434d4fdeab, type: 3}
    - time: .400000006
      value: {fileID: 21300000, guid: 7dff89cdbdb1ab3429b16bd263ca2eaa, type: 3}
    - time: .449999988
      value: {fileID: 21300000, guid: b636fd4f2a2eb65498da536f7d0440a4, type: 3}
    - time: .5
      value: {fileID: 21300000, guid: abb96a2eee1b0384395c33905edc38ea, type: 3}
    - time: .550000012
      value: {fileID: 21300000, guid: 21f0dfe62ad0a9345a1cf3b3ef82f566, type: 3}
    - time: .600000024
      value: {fileID: 21300000, guid: 6633cf170f2e8d743b39c271c3932d88, type: 3}
    attribute: m_Sprite
    path: Character
    classID: 212
    script: {fileID: 0}
  m_SampleRate: 40
  m_WrapMode: 0
  m_Bounds:
    m_Center: {x: 0, y: 0, z: 0}
    m_Extent: {x: 0, y: 0, z: 0}
  m_ClipBindingConstant:
    genericBindings:
    - path: 1385276382
      attribute: 1
      script: {fileID: 0}
      classID: 4
      customType: 0
      isPPtrCurve: 0
    - path: 1385276382
      attribute: 3
      script: {fileID: 0}
      classID: 4
      customType: 0
      isPPtrCurve: 0
    - path: 1385276382
      attribute: 2526845255
      script: {fileID: 0}
      classID: 212
      customType: 0
      isPPtrCurve: 0
    - path: 1385276382
      attribute: 4215373228
      script: {fileID: 0}
      classID: 212
      customType: 0
      isPPtrCurve: 0
    - path: 1385276382
      attribute: 2334886179
      script: {fileID: 0}
      classID: 212
      customType: 0
      isPPtrCurve: 0
    - path: 294335127
      attribute: 0
      script: {fileID: 0}
      classID: 212
      customType: 23
      isPPtrCurve: 1
    pptrCurveMapping:
    - {fileID: 21300000, guid: beb9dd999e76a43468ddae527ec7a117, type: 3}
    - {fileID: 21300000, guid: 73a878bcbb1d2cc4fbc0377bad3848ff, type: 3}
    - {fileID: 21300000, guid: 458794443bfab554c9a4a3fb31f56c7c, type: 3}
    - {fileID: 21300000, guid: ded85ece192c49f42ad050c468a6b112, type: 3}
    - {fileID: 21300000, guid: feef271028e0eeb419ba192923c73db2, type: 3}
    - {fileID: 21300000, guid: bca424a72a5253343a58bfa433f2ddb1, type: 3}
    - {fileID: 21300000, guid: ba72aa5712832ef478735b4f8f7c49af, type: 3}
    - {fileID: 21300000, guid: 60963f6f055572a4cb5dd3434d4fdeab, type: 3}
    - {fileID: 21300000, guid: 7dff89cdbdb1ab3429b16bd263ca2eaa, type: 3}
    - {fileID: 21300000, guid: b636fd4f2a2eb65498da536f7d0440a4, type: 3}
    - {fileID: 21300000, guid: abb96a2eee1b0384395c33905edc38ea, type: 3}
    - {fileID: 21300000, guid: 21f0dfe62ad0a9345a1cf3b3ef82f566, type: 3}
    - {fileID: 21300000, guid: 6633cf170f2e8d743b39c271c3932d88, type: 3}
  m_AnimationClipSettings:
    serializedVersion: 2
    m_StartTime: 0
    m_StopTime: .625
    m_OrientationOffsetY: 0
    m_Level: 0
    m_CycleOffset: 0
    m_LoopTime: 1
    m_LoopBlend: 0
    m_LoopBlendOrientation: 0
    m_LoopBlendPositionY: 0
    m_LoopBlendPositionXZ: 0
    m_KeepOriginalOrientation: 0
    m_KeepOriginalPositionY: 1
    m_KeepOriginalPositionXZ: 0
    m_HeightFromFeet: 0
    m_Mirror: 0
  m_EditorCurves:
  - curve:
      serializedVersion: 2
      m_Curve:
      - time: 0
        value: .0700000003
        inSlope: 0
        outSlope: 0
        tangentMode: 10
      - time: .300000012
        value: .0700000003
        inSlope: 0
        outSlope: 0
        tangentMode: 10
      - time: .600000024
        value: .0700000003
        inSlope: 0
        outSlope: 0
        tangentMode: 10
      m_PreInfinity: 2
      m_PostInfinity: 2
    attribute: m_LocalPosition.x
    path: Bg/Bg1/Bg2
    classID: 4
    script: {fileID: 0}
  - curve:
      serializedVersion: 2
      m_Curve:
      - time: 0
        value: .109999999
        inSlope: -.100000001
        outSlope: -.100000001
        tangentMode: 10
      - time: .300000012
        value: .0799999982
        inSlope: 0
        outSlope: 0
        tangentMode: 10
      - time: .600000024
        value: .109999999
        inSlope: .100000001
        outSlope: .100000001
        tangentMode: 10
      m_PreInfinity: 2
      m_PostInfinity: 2
    attribute: m_LocalPosition.y
    path: Bg/Bg1/Bg2
    classID: 4
    script: {fileID: 0}
  - curve:
      serializedVersion: 2
      m_Curve:
      - time: 0
        value: 0
        inSlope: 0
        outSlope: 0
        tangentMode: 10
      - time: .300000012
        value: 0
        inSlope: 0
        outSlope: 0
        tangentMode: 10
      - time: .600000024
        value: 0
        inSlope: 0
        outSlope: 0
        tangentMode: 10
      m_PreInfinity: 2
      m_PostInfinity: 2
    attribute: m_LocalPosition.z
    path: Bg/Bg1/Bg2
    classID: 4
    script: {fileID: 0}
  - curve:
      serializedVersion: 2
      m_Curve:
      - time: 0
        value: 1.25511789
        inSlope: .19309485
        outSlope: .19309485
        tangentMode: 10
      - time: .324999988
        value: 1.31787372
        inSlope: -.0175540596
        outSlope: -.0175540596
        tangentMode: 10
      - time: .600000024
        value: 1.25511789
        inSlope: -.228202969
        outSlope: -.228202969
        tangentMode: 10
      m_PreInfinity: 2
      m_PostInfinity: 2
    attribute: m_LocalScale.x
    path: Bg/Bg1/Bg2
    classID: 4
    script: {fileID: 0}
  - curve:
      serializedVersion: 2
      m_Curve:
      - time: 0
        value: .979863107
        inSlope: 0
        outSlope: 0
        tangentMode: 10
      - time: .324999988
        value: .979863107
        inSlope: 0
        outSlope: 0
        tangentMode: 10
      - time: .600000024
        value: .979863107
        inSlope: 0
        outSlope: 0
        tangentMode: 10
      m_PreInfinity: 2
      m_PostInfinity: 2
    attribute: m_LocalScale.y
    path: Bg/Bg1/Bg2
    classID: 4
    script: {fileID: 0}
  - curve:
      serializedVersion: 2
      m_Curve:
      - time: 0
        value: 1
        inSlope: 0
        outSlope: 0
        tangentMode: 10
      - time: .324999988
        value: 1
        inSlope: 0
        outSlope: 0
        tangentMode: 10
      - time: .600000024
        value: 1
        inSlope: 0
        outSlope: 0
        tangentMode: 10
      m_PreInfinity: 2
      m_PostInfinity: 2
    attribute: m_LocalScale.z
    path: Bg/Bg1/Bg2
    classID: 4
    script: {fileID: 0}
  - curve:
      serializedVersion: 2
      m_Curve:
      - time: 0
        value: 1
        inSlope: -.113122098
        outSlope: -.113122098
        tangentMode: 10
      - time: .324999988
        value: .963235319
        inSlope: -.113122098
        outSlope: -.113122098
        tangentMode: 10
      m_PreInfinity: 2
      m_PostInfinity: 2
    attribute: m_Color.r
    path: Bg/Bg1/Bg2
    classID: 212
    script: {fileID: 0}
  - curve:
      serializedVersion: 2
      m_Curve:
      - time: 0
        value: 1
        inSlope: -.113122098
        outSlope: -.113122098
        tangentMode: 10
      - time: .324999988
        value: .963235319
        inSlope: -.113122098
        outSlope: -.113122098
        tangentMode: 10
      m_PreInfinity: 2
      m_PostInfinity: 2
    attribute: m_Color.g
    path: Bg/Bg1/Bg2
    classID: 212
    script: {fileID: 0}
  - curve:
      serializedVersion: 2
      m_Curve:
      - time: 0
        value: 1
        inSlope: -.113122098
        outSlope: -.113122098
        tangentMode: 10
      - time: .324999988
        value: .963235319
        inSlope: -.113122098
        outSlope: -.113122098
        tangentMode: 10
      m_PreInfinity: 2
      m_PostInfinity: 2
    attribute: m_Color.b
    path: Bg/Bg1/Bg2
    classID: 212
    script: {fileID: 0}
  m_EulerEditorCurves: []
  m_HasGenericRootTransform: 0
  m_HasMotionFloatCurves: 0
  m_GenerateMotionCurves: 0
  m_Events: []
