%YAML 1.1
%TAG !u! tag:unity3d.com,2011:
--- !u!74 &7400000
AnimationClip:
  m_ObjectHideFlags: 0
  m_PrefabParentObject: {fileID: 0}
  m_PrefabInternal: {fileID: 0}
  m_Name: BerretaShot
  serializedVersion: 6
  m_Legacy: 0
  m_Compressed: 0
  m_UseHighQualityCurve: 1
  m_RotationCurves:
  - curve:
      serializedVersion: 2
      m_Curve:
      - time: 0
        value: {x: 0, y: 0, z: -.00448847702, w: .999989927}
        inSlope: {x: 0, y: 0, z: -.242781848, w: -.00158071506}
        outSlope: {x: 0, y: 0, z: -.242781848, w: -.00158071506}
        tangentMode: 0
      - time: .0166666675
        value: {x: 0, y: 0, z: -.00853484124, w: .999963582}
        inSlope: {x: 0, y: 0, z: -.242777616, w: -.00207245327}
        outSlope: {x: 0, y: 0, z: -.242777616, w: -.00207245327}
        tangentMode: 0
      - time: .0333333351
        value: {x: 0, y: 0, z: -.0125810644, w: .999920845}
        inSlope: {x: 0, y: 0, z: -.242767215, w: -.00305414153}
        outSlope: {x: 0, y: 0, z: -.242767215, w: -.00305414153}
        tangentMode: 0
      - time: .0500000045
        value: {x: 0, y: 0, z: -.0166270826, w: .999861777}
        inSlope: {x: 0, y: 0, z: -.242752895, w: -.0040358305}
        outSlope: {x: 0, y: 0, z: -.242752895, w: -.0040358305}
        tangentMode: 0
      - time: .0666666701
        value: {x: 0, y: 0, z: -.020672828, w: .999786317}
        inSlope: {x: 0, y: 0, z: -.242735744, w: -.00497058174}
        outSlope: {x: 0, y: 0, z: -.242735744, w: -.00497058174}
        tangentMode: 0
      - time: .0799999982
        value: {x: 0, y: 0, z: -.0239091832, w: .999714136}
        inSlope: {x: 0, y: 0, z: -.242726743, w: -.00541359419}
        outSlope: {x: 0, y: 0, z: -.242726743, w: -.00541359419}
        tangentMode: 0
      m_PreInfinity: 2
      m_PostInfinity: 2
    path: Assault Rifle
  m_CompressedRotationCurves: []
  m_PositionCurves:
  - curve:
      serializedVersion: 2
      m_Curve:
      - time: 0
        value: {x: 1.71000004, y: -.930000007, z: 0}
        inSlope: {x: .749999285, y: -1.74999988, z: 0}
        outSlope: {x: .749999285, y: -1.74999988, z: 0}
        tangentMode: 0
      - time: .0399999991
        value: {x: 1.74000001, y: -1, z: 0}
        inSlope: {x: 1.24999881, y: -.842592895, z: 0}
        outSlope: {x: 1.24999881, y: -.842592895, z: 0}
        tangentMode: 0
      - time: .0799999982
        value: {x: 1.80999994, y: -.997407436, z: 0}
        inSlope: {x: .249999762, y: .453703493, z: 0}
        outSlope: {x: .249999762, y: .453703493, z: 0}
        tangentMode: 0
      - time: .159999996
        value: {x: 1.71000004, y: -.930000007, z: 0}
        inSlope: {x: -1.24999881, y: .842592895, z: 0}
        outSlope: {x: -1.24999881, y: .842592895, z: 0}
        tangentMode: 0
      m_PreInfinity: 2
      m_PostInfinity: 2
    path: Assault Rifle
  - curve:
      serializedVersion: 2
      m_Curve:
      - time: 0
        value: {x: .660000026, y: -.25, z: 0}
        inSlope: {x: 0, y: 0, z: 0}
        outSlope: {x: 0, y: 0, z: 0}
        tangentMode: 0
      m_PreInfinity: 2
      m_PostInfinity: 2
    path: Pistol Shot
  m_ScaleCurves: []
  m_FloatCurves: []
  m_PPtrCurves:
  - curve:
    - time: 0
      value: {fileID: 0}
    attribute: m_Sprite
    path: 
    classID: 212
    script: {fileID: 0}
  - curve:
    - time: 0
      value: {fileID: 21300000, guid: f99ae075da154974b9a6497c60b67026, type: 3}
    - time: .159999996
      value: {fileID: 21300000, guid: f99ae075da154974b9a6497c60b67026, type: 3}
    attribute: m_Sprite
    path: Assault Rifle
    classID: 212
    script: {fileID: 0}
  - curve:
    - time: 0
      value: {fileID: 21300000, guid: 694dcbfb343bd214da4f0b578373407a, type: 3}
    - time: .0399999991
      value: {fileID: 21300000, guid: 7680a3b2dafe7bb4da88ff51c4f5aaa3, type: 3}
    - time: .0799999982
      value: {fileID: 21300000, guid: b70522ae27fb05e48bfcfd2525eb80c6, type: 3}
    - time: .119999997
      value: {fileID: 0}
    attribute: m_Sprite
    path: Pistol Shot
    classID: 212
    script: {fileID: 0}
  - curve:
    - time: 0
      value: {fileID: 0}
    attribute: m_Sprite
    path: Rafaga
    classID: 212
    script: {fileID: 0}
  m_SampleRate: 60
  m_WrapMode: 0
  m_Bounds:
    m_Center: {x: 0, y: 0, z: 0}
    m_Extent: {x: 0, y: 0, z: 0}
  m_ClipBindingConstant:
    genericBindings:
    - path: 4220708536
      attribute: 1
      script: {fileID: 0}
      classID: 4
      customType: 0
      isPPtrCurve: 0
    - path: 4220708536
      attribute: 2
      script: {fileID: 0}
      classID: 4
      customType: 0
      isPPtrCurve: 0
    - path: 0
      attribute: 0
      script: {fileID: 0}
      classID: 212
      customType: 23
      isPPtrCurve: 1
    - path: 4220708536
      attribute: 0
      script: {fileID: 0}
      classID: 212
      customType: 23
      isPPtrCurve: 1
    - path: 914819000
      attribute: 0
      script: {fileID: 0}
      classID: 212
      customType: 23
      isPPtrCurve: 1
    - path: 327676868
      attribute: 0
      script: {fileID: 0}
      classID: 212
      customType: 23
      isPPtrCurve: 1
    - path: 914819000
      attribute: 1
      script: {fileID: 0}
      classID: 4
      customType: 0
      isPPtrCurve: 0
    pptrCurveMapping:
    - {fileID: 0}
    - {fileID: 21300000, guid: f99ae075da154974b9a6497c60b67026, type: 3}
    - {fileID: 21300000, guid: f99ae075da154974b9a6497c60b67026, type: 3}
    - {fileID: 21300000, guid: 694dcbfb343bd214da4f0b578373407a, type: 3}
    - {fileID: 21300000, guid: 7680a3b2dafe7bb4da88ff51c4f5aaa3, type: 3}
    - {fileID: 21300000, guid: b70522ae27fb05e48bfcfd2525eb80c6, type: 3}
    - {fileID: 0}
    - {fileID: 0}
  m_AnimationClipSettings:
    serializedVersion: 2
    m_StartTime: 0
    m_StopTime: .176666662
    m_OrientationOffsetY: 0
    m_Level: 0
    m_CycleOffset: 0
    m_LoopTime: 1
    m_LoopBlend: 0
    m_LoopBlendOrientation: 0
    m_LoopBlendPositionY: 0
    m_LoopBlendPositionXZ: 0
    m_KeepOriginalOrientation: 0
    m_KeepOriginalPositionY: 1
    m_KeepOriginalPositionXZ: 0
    m_HeightFromFeet: 0
    m_Mirror: 0
  m_EditorCurves:
  - curve:
      serializedVersion: 2
      m_Curve:
      - time: 0
        value: 1.71000004
        inSlope: .749999285
        outSlope: .749999285
        tangentMode: 10
      - time: .0399999991
        value: 1.74000001
        inSlope: 1.24999881
        outSlope: 1.24999881
        tangentMode: 10
      - time: .0799999982
        value: 1.80999994
        inSlope: .249999762
        outSlope: .249999762
        tangentMode: 10
      - time: .159999996
        value: 1.71000004
        inSlope: -1.24999881
        outSlope: -1.24999881
        tangentMode: 10
      m_PreInfinity: 2
      m_PostInfinity: 2
    attribute: m_LocalPosition.x
    path: Assault Rifle
    classID: 4
    script: {fileID: 0}
  - curve:
      serializedVersion: 2
      m_Curve:
      - time: 0
        value: -.930000007
        inSlope: -1.74999988
        outSlope: -1.74999988
        tangentMode: 10
      - time: .0399999991
        value: -1
        inSlope: -.842592895
        outSlope: -.842592895
        tangentMode: 10
      - time: .0799999982
        value: -.997407436
        inSlope: .453703493
        outSlope: .453703493
        tangentMode: 10
      - time: .159999996
        value: -.930000007
        inSlope: .842592895
        outSlope: .842592895
        tangentMode: 10
      m_PreInfinity: 2
      m_PostInfinity: 2
    attribute: m_LocalPosition.y
    path: Assault Rifle
    classID: 4
    script: {fileID: 0}
  - curve:
      serializedVersion: 2
      m_Curve:
      - time: 0
        value: 0
        inSlope: 0
        outSlope: 0
        tangentMode: 10
      - time: .0399999991
        value: 0
        inSlope: 0
        outSlope: 0
        tangentMode: 10
      - time: .0799999982
        value: 0
        inSlope: 0
        outSlope: 0
        tangentMode: 10
      - time: .159999996
        value: 0
        inSlope: 0
        outSlope: 0
        tangentMode: 10
      m_PreInfinity: 2
      m_PostInfinity: 2
    attribute: m_LocalPosition.z
    path: Assault Rifle
    classID: 4
    script: {fileID: 0}
  - curve:
      serializedVersion: 2
      m_Curve:
      - time: 0
        value: 0
        inSlope: 0
        outSlope: 0
        tangentMode: 0
      - time: .0166666675
        value: 0
        inSlope: 0
        outSlope: 0
        tangentMode: 0
      - time: .0333333351
        value: 0
        inSlope: 0
        outSlope: 0
        tangentMode: 0
      - time: .0500000045
        value: 0
        inSlope: 0
        outSlope: 0
        tangentMode: 0
      - time: .0666666701
        value: 0
        inSlope: 0
        outSlope: 0
        tangentMode: 0
      - time: .0799999982
        value: 0
        inSlope: 0
        outSlope: 0
        tangentMode: 0
      m_PreInfinity: 2
      m_PostInfinity: 2
    attribute: m_LocalRotation.x
    path: Assault Rifle
    classID: 4
    script: {fileID: 0}
  - curve:
      serializedVersion: 2
      m_Curve:
      - time: 0
        value: 0
        inSlope: 0
        outSlope: 0
        tangentMode: 0
      - time: .0166666675
        value: 0
        inSlope: 0
        outSlope: 0
        tangentMode: 0
      - time: .0333333351
        value: 0
        inSlope: 0
        outSlope: 0
        tangentMode: 0
      - time: .0500000045
        value: 0
        inSlope: 0
        outSlope: 0
        tangentMode: 0
      - time: .0666666701
        value: 0
        inSlope: 0
        outSlope: 0
        tangentMode: 0
      - time: .0799999982
        value: 0
        inSlope: 0
        outSlope: 0
        tangentMode: 0
      m_PreInfinity: 2
      m_PostInfinity: 2
    attribute: m_LocalRotation.y
    path: Assault Rifle
    classID: 4
    script: {fileID: 0}
  - curve:
      serializedVersion: 2
      m_Curve:
      - time: 0
        value: -.00448847702
        inSlope: -.242781848
        outSlope: -.242781848
        tangentMode: 0
      - time: .0166666675
        value: -.00853484124
        inSlope: -.242777616
        outSlope: -.242777616
        tangentMode: 0
      - time: .0333333351
        value: -.0125810644
        inSlope: -.242767215
        outSlope: -.242767215
        tangentMode: 0
      - time: .0500000045
        value: -.0166270826
        inSlope: -.242752895
        outSlope: -.242752895
        tangentMode: 0
      - time: .0666666701
        value: -.020672828
        inSlope: -.242735744
        outSlope: -.242735744
        tangentMode: 0
      - time: .0799999982
        value: -.0239091832
        inSlope: -.242726743
        outSlope: -.242726743
        tangentMode: 0
      m_PreInfinity: 2
      m_PostInfinity: 2
    attribute: m_LocalRotation.z
    path: Assault Rifle
    classID: 4
    script: {fileID: 0}
  - curve:
      serializedVersion: 2
      m_Curve:
      - time: 0
        value: .999989927
        inSlope: -.00158071506
        outSlope: -.00158071506
        tangentMode: 0
      - time: .0166666675
        value: .999963582
        inSlope: -.00207245327
        outSlope: -.00207245327
        tangentMode: 0
      - time: .0333333351
        value: .999920845
        inSlope: -.00305414153
        outSlope: -.00305414153
        tangentMode: 0
      - time: .0500000045
        value: .999861777
        inSlope: -.0040358305
        outSlope: -.0040358305
        tangentMode: 0
      - time: .0666666701
        value: .999786317
        inSlope: -.00497058174
        outSlope: -.00497058174
        tangentMode: 0
      - time: .0799999982
        value: .999714136
        inSlope: -.00541359419
        outSlope: -.00541359419
        tangentMode: 0
      m_PreInfinity: 2
      m_PostInfinity: 2
    attribute: m_LocalRotation.w
    path: Assault Rifle
    classID: 4
    script: {fileID: 0}
  - curve:
      serializedVersion: 2
      m_Curve:
      - time: 0
        value: .660000026
        inSlope: 0
        outSlope: 0
        tangentMode: 10
      m_PreInfinity: 2
      m_PostInfinity: 2
    attribute: m_LocalPosition.x
    path: Pistol Shot
    classID: 4
    script: {fileID: 0}
  - curve:
      serializedVersion: 2
      m_Curve:
      - time: 0
        value: -.25
        inSlope: 0
        outSlope: 0
        tangentMode: 10
      m_PreInfinity: 2
      m_PostInfinity: 2
    attribute: m_LocalPosition.y
    path: Pistol Shot
    classID: 4
    script: {fileID: 0}
  - curve:
      serializedVersion: 2
      m_Curve:
      - time: 0
        value: 0
        inSlope: 0
        outSlope: 0
        tangentMode: 10
      m_PreInfinity: 2
      m_PostInfinity: 2
    attribute: m_LocalPosition.z
    path: Pistol Shot
    classID: 4
    script: {fileID: 0}
  m_EulerEditorCurves:
  - curve:
      serializedVersion: 2
      m_Curve:
      - time: 0
        value: 0
        inSlope: 0
        outSlope: 0
        tangentMode: 10
      - time: .0799999982
        value: 0
        inSlope: 0
        outSlope: 0
        tangentMode: 10
      m_PreInfinity: 2
      m_PostInfinity: 2
    attribute: localEulerAnglesBaked.x
    path: Assault Rifle
    classID: 4
    script: {fileID: 0}
  - curve:
      serializedVersion: 2
      m_Curve:
      - time: 0
        value: 0
        inSlope: 0
        outSlope: 0
        tangentMode: 10
      - time: .0799999982
        value: 0
        inSlope: 0
        outSlope: 0
        tangentMode: 10
      m_PreInfinity: 2
      m_PostInfinity: 2
    attribute: localEulerAnglesBaked.y
    path: Assault Rifle
    classID: 4
    script: {fileID: 0}
  - curve:
      serializedVersion: 2
      m_Curve:
      - time: 0
        value: -.514343262
        inSlope: -27.8213501
        outSlope: -27.8213501
        tangentMode: 10
      - time: .0799999982
        value: -2.74005127
        inSlope: -27.8213501
        outSlope: -27.8213501
        tangentMode: 10
      m_PreInfinity: 2
      m_PostInfinity: 2
    attribute: localEulerAnglesBaked.z
    path: Assault Rifle
    classID: 4
    script: {fileID: 0}
  m_HasGenericRootTransform: 0
  m_HasMotionFloatCurves: 0
  m_GenerateMotionCurves: 0
  m_Events: []
