%YAML 1.1
%TAG !u! tag:unity3d.com,2011:
--- !u!74 &7400000
AnimationClip:
  m_ObjectHideFlags: 0
  m_PrefabParentObject: {fileID: 0}
  m_PrefabInternal: {fileID: 0}
  m_Name: Mat2Shot
  serializedVersion: 6
  m_Legacy: 0
  m_Compressed: 0
  m_UseHighQualityCurve: 1
  m_RotationCurves: []
  m_CompressedRotationCurves: []
  m_PositionCurves:
  - curve:
      serializedVersion: 2
      m_Curve:
      - time: 0
        value: {x: 3.13000011, y: -.959999979, z: 0}
        inSlope: {x: -1.00000381, y: 1.59999967, z: 0}
        outSlope: {x: -1.00000381, y: 1.59999967, z: 0}
        tangentMode: 0
      - time: .0500000007
        value: {x: 3.07999992, y: -.879999995, z: 0}
        inSlope: {x: -1.25000119, y: .199999928, z: 0}
        outSlope: {x: -1.25000119, y: .199999928, z: 0}
        tangentMode: 0
      - time: .116666667
        value: {x: 2.98000002, y: -.959999979, z: 0}
        inSlope: {x: .375001371, y: -.300000221, z: 0}
        outSlope: {x: .375001371, y: -.300000221, z: 0}
        tangentMode: 0
      - time: .183333337
        value: {x: 3.13000011, y: -.920000017, z: 0}
        inSlope: {x: 1.12500072, y: -.0999999642, z: 0}
        outSlope: {x: 1.12500072, y: -.0999999642, z: 0}
        tangentMode: 0
      - time: .233333334
        value: {x: 3.13000011, y: -.959999979, z: 0}
        inSlope: {x: 0, y: -.799999297, z: 0}
        outSlope: {x: 0, y: -.799999297, z: 0}
        tangentMode: 0
      m_PreInfinity: 2
      m_PostInfinity: 2
    path: Assault Rifle
  - curve:
      serializedVersion: 2
      m_Curve:
      - time: 0
        value: {x: .639999986, y: -.230000004, z: 0}
        inSlope: {x: 0, y: 0, z: 0}
        outSlope: {x: 0, y: 0, z: 0}
        tangentMode: 0
      - time: .233333334
        value: {x: .639999986, y: -.230000004, z: 0}
        inSlope: {x: 0, y: 0, z: 0}
        outSlope: {x: 0, y: 0, z: 0}
        tangentMode: 0
      m_PreInfinity: 2
      m_PostInfinity: 2
    path: Rafaga
  m_ScaleCurves: []
  m_FloatCurves: []
  m_PPtrCurves:
  - curve:
    - time: 0
      value: {fileID: 21300000, guid: dcf23f018e79eda4fabc5743de698e93, type: 3}
    - time: .0399999991
      value: {fileID: 21300000, guid: 43c9817306473504c96b384ec2fad319, type: 3}
    - time: .0799999982
      value: {fileID: 21300000, guid: f14a7ad1966158f4dadb1790748693da, type: 3}
    - time: .119999997
      value: {fileID: 0}
    - time: .159999996
      value: {fileID: 21300000, guid: 7d42cd7aaf431e3479f831d264d50dcb, type: 3}
    - time: .200000003
      value: {fileID: 21300000, guid: 49b1f7c9bb42cdc45a157be5a90fcb8b, type: 3}
    - time: .233333334
      value: {fileID: 21300000, guid: 9140d269577456348b969181767ca2cf, type: 3}
    attribute: m_Sprite
    path: 
    classID: 212
    script: {fileID: 0}
  - curve:
    - time: 0
      value: {fileID: 21300000, guid: 8a404a190a288e849ab97cb233e72c0f, type: 3}
    - time: .0399999991
      value: {fileID: 21300000, guid: 5edf2f4b857f35c4e84471b7a61eae97, type: 3}
    - time: .0799999982
      value: {fileID: 21300000, guid: ed3c090051c5f1543a75c21a24733b5f, type: 3}
    - time: .119999997
      value: {fileID: 21300000, guid: c4251de3473d9114caeea210971ff9dc, type: 3}
    - time: .159999996
      value: {fileID: 21300000, guid: dbbcbd3565cd0c24fbd16e6e6f73f24a, type: 3}
    - time: .200000003
      value: {fileID: 21300000, guid: 0a1a64360e7633d48b5c28df50c5bc9e, type: 3}
    - time: .233333334
      value: {fileID: 21300000, guid: 641c3282601a4e14d88b1607c1f07fcd, type: 3}
    attribute: m_Sprite
    path: Rafaga
    classID: 212
    script: {fileID: 0}
  - curve:
    - time: 0
      value: {fileID: 21300000, guid: 791ff68cdc6b5bd41a7472e57dfe071a, type: 3}
    attribute: m_Sprite
    path: Assault Rifle
    classID: 212
    script: {fileID: 0}
  m_SampleRate: 60
  m_WrapMode: 0
  m_Bounds:
    m_Center: {x: 0, y: 0, z: 0}
    m_Extent: {x: 0, y: 0, z: 0}
  m_ClipBindingConstant:
    genericBindings:
    - path: 4220708536
      attribute: 1
      script: {fileID: 0}
      classID: 4
      customType: 0
      isPPtrCurve: 0
    - path: 0
      attribute: 0
      script: {fileID: 0}
      classID: 212
      customType: 23
      isPPtrCurve: 1
    - path: 327676868
      attribute: 0
      script: {fileID: 0}
      classID: 212
      customType: 23
      isPPtrCurve: 1
    - path: 4220708536
      attribute: 0
      script: {fileID: 0}
      classID: 212
      customType: 23
      isPPtrCurve: 1
    - path: 327676868
      attribute: 1
      script: {fileID: 0}
      classID: 4
      customType: 0
      isPPtrCurve: 0
    pptrCurveMapping:
    - {fileID: 21300000, guid: dcf23f018e79eda4fabc5743de698e93, type: 3}
    - {fileID: 21300000, guid: 43c9817306473504c96b384ec2fad319, type: 3}
    - {fileID: 21300000, guid: f14a7ad1966158f4dadb1790748693da, type: 3}
    - {fileID: 0}
    - {fileID: 21300000, guid: 7d42cd7aaf431e3479f831d264d50dcb, type: 3}
    - {fileID: 21300000, guid: 49b1f7c9bb42cdc45a157be5a90fcb8b, type: 3}
    - {fileID: 21300000, guid: 9140d269577456348b969181767ca2cf, type: 3}
    - {fileID: 21300000, guid: 8a404a190a288e849ab97cb233e72c0f, type: 3}
    - {fileID: 21300000, guid: 5edf2f4b857f35c4e84471b7a61eae97, type: 3}
    - {fileID: 21300000, guid: ed3c090051c5f1543a75c21a24733b5f, type: 3}
    - {fileID: 21300000, guid: c4251de3473d9114caeea210971ff9dc, type: 3}
    - {fileID: 21300000, guid: dbbcbd3565cd0c24fbd16e6e6f73f24a, type: 3}
    - {fileID: 21300000, guid: 0a1a64360e7633d48b5c28df50c5bc9e, type: 3}
    - {fileID: 21300000, guid: 641c3282601a4e14d88b1607c1f07fcd, type: 3}
    - {fileID: 21300000, guid: 791ff68cdc6b5bd41a7472e57dfe071a, type: 3}
  m_AnimationClipSettings:
    serializedVersion: 2
    m_StartTime: 0
    m_StopTime: .25
    m_OrientationOffsetY: 0
    m_Level: 0
    m_CycleOffset: 0
    m_LoopTime: 1
    m_LoopBlend: 0
    m_LoopBlendOrientation: 0
    m_LoopBlendPositionY: 0
    m_LoopBlendPositionXZ: 0
    m_KeepOriginalOrientation: 0
    m_KeepOriginalPositionY: 1
    m_KeepOriginalPositionXZ: 0
    m_HeightFromFeet: 0
    m_Mirror: 0
  m_EditorCurves:
  - curve:
      serializedVersion: 2
      m_Curve:
      - time: 0
        value: 3.13000011
        inSlope: -1.00000381
        outSlope: -1.00000381
        tangentMode: 10
      - time: .0500000007
        value: 3.07999992
        inSlope: -1.25000119
        outSlope: -1.25000119
        tangentMode: 10
      - time: .116666667
        value: 2.98000002
        inSlope: .375001371
        outSlope: .375001371
        tangentMode: 10
      - time: .183333337
        value: 3.13000011
        inSlope: 1.12500072
        outSlope: 1.12500072
        tangentMode: 10
      - time: .233333334
        value: 3.13000011
        inSlope: 0
        outSlope: 0
        tangentMode: 10
      m_PreInfinity: 2
      m_PostInfinity: 2
    attribute: m_LocalPosition.x
    path: Assault Rifle
    classID: 4
    script: {fileID: 0}
  - curve:
      serializedVersion: 2
      m_Curve:
      - time: 0
        value: -.959999979
        inSlope: 1.59999967
        outSlope: 1.59999967
        tangentMode: 10
      - time: .0500000007
        value: -.879999995
        inSlope: .199999928
        outSlope: .199999928
        tangentMode: 10
      - time: .116666667
        value: -.959999979
        inSlope: -.300000221
        outSlope: -.300000221
        tangentMode: 10
      - time: .183333337
        value: -.920000017
        inSlope: -.0999999642
        outSlope: -.0999999642
        tangentMode: 10
      - time: .233333334
        value: -.959999979
        inSlope: -.799999297
        outSlope: -.799999297
        tangentMode: 10
      m_PreInfinity: 2
      m_PostInfinity: 2
    attribute: m_LocalPosition.y
    path: Assault Rifle
    classID: 4
    script: {fileID: 0}
  - curve:
      serializedVersion: 2
      m_Curve:
      - time: 0
        value: 0
        inSlope: 0
        outSlope: 0
        tangentMode: 10
      - time: .0500000007
        value: 0
        inSlope: 0
        outSlope: 0
        tangentMode: 10
      - time: .116666667
        value: 0
        inSlope: 0
        outSlope: 0
        tangentMode: 10
      - time: .183333337
        value: 0
        inSlope: 0
        outSlope: 0
        tangentMode: 10
      - time: .233333334
        value: 0
        inSlope: 0
        outSlope: 0
        tangentMode: 10
      m_PreInfinity: 2
      m_PostInfinity: 2
    attribute: m_LocalPosition.z
    path: Assault Rifle
    classID: 4
    script: {fileID: 0}
  - curve:
      serializedVersion: 2
      m_Curve:
      - time: 0
        value: .639999986
        inSlope: 0
        outSlope: 0
        tangentMode: 10
      - time: .233333334
        value: .639999986
        inSlope: 0
        outSlope: 0
        tangentMode: 10
      m_PreInfinity: 2
      m_PostInfinity: 2
    attribute: m_LocalPosition.x
    path: Rafaga
    classID: 4
    script: {fileID: 0}
  - curve:
      serializedVersion: 2
      m_Curve:
      - time: 0
        value: -.230000004
        inSlope: 0
        outSlope: 0
        tangentMode: 10
      - time: .233333334
        value: -.230000004
        inSlope: 0
        outSlope: 0
        tangentMode: 10
      m_PreInfinity: 2
      m_PostInfinity: 2
    attribute: m_LocalPosition.y
    path: Rafaga
    classID: 4
    script: {fileID: 0}
  - curve:
      serializedVersion: 2
      m_Curve:
      - time: 0
        value: 0
        inSlope: 0
        outSlope: 0
        tangentMode: 10
      - time: .233333334
        value: 0
        inSlope: 0
        outSlope: 0
        tangentMode: 10
      m_PreInfinity: 2
      m_PostInfinity: 2
    attribute: m_LocalPosition.z
    path: Rafaga
    classID: 4
    script: {fileID: 0}
  m_EulerEditorCurves: []
  m_HasGenericRootTransform: 0
  m_HasMotionFloatCurves: 0
  m_GenerateMotionCurves: 0
  m_Events: []
