%YAML 1.1
%TAG !u! tag:unity3d.com,2011:
--- !u!74 &7400000
AnimationClip:
  m_ObjectHideFlags: 0
  m_PrefabParentObject: {fileID: 0}
  m_PrefabInternal: {fileID: 0}
  m_Name: MossbergShot
  serializedVersion: 6
  m_Legacy: 0
  m_Compressed: 0
  m_UseHighQualityCurve: 1
  m_RotationCurves:
  - curve:
      serializedVersion: 2
      m_Curve:
      - time: 0
        value: {x: 0, y: 0, z: .00265210611, w: .999996483}
        inSlope: {x: 0, y: 0, z: -.2705957, w: .000107288353}
        outSlope: {x: 0, y: 0, z: -.2705957, w: .000107288353}
        tangentMode: 0
      - time: .0166666675
        value: {x: 0, y: 0, z: -.00185782241, w: .999998271}
        inSlope: {x: 0, y: 0, z: -.282691509, w: -.000582933368}
        outSlope: {x: 0, y: 0, z: -.282691509, w: -.000582933368}
        tangentMode: 0
      - time: .0333333351
        value: {x: 0, y: 0, z: -.00677094469, w: .999977052}
        inSlope: {x: 0, y: 0, z: -.28671813, w: -.00190258003}
        outSlope: {x: 0, y: 0, z: -.28671813, w: -.00190258003}
        tangentMode: 0
      - time: .0500000045
        value: {x: 0, y: 0, z: -.0114150951, w: .999934852}
        inSlope: {x: 0, y: 0, z: -.250418216, w: -.00273942947}
        outSlope: {x: 0, y: 0, z: -.250418216, w: -.00273942947}
        tangentMode: 0
      - time: .0666666701
        value: {x: 0, y: 0, z: -.015118219, w: .999885738}
        inSlope: {x: 0, y: 0, z: -.174779028, w: -.00250518345}
        outSlope: {x: 0, y: 0, z: -.174779028, w: -.00250518345}
        tangentMode: 0
      - time: .0833333358
        value: {x: 0, y: 0, z: -.0172410626, w: .999851346}
        inSlope: {x: 0, y: 0, z: -.0972776935, w: -.00162899517}
        outSlope: {x: 0, y: 0, z: -.0972776935, w: -.00162899517}
        tangentMode: 0
      - time: .100000001
        value: {x: 0, y: 0, z: -.0183608085, w: .999831438}
        inSlope: {x: 0, y: 0, z: -.051853925, w: -.000938773272}
        outSlope: {x: 0, y: 0, z: -.051853925, w: -.000938773272}
        tangentMode: 0
      - time: .116666667
        value: {x: 0, y: 0, z: -.0189695265, w: .999820054}
        inSlope: {x: 0, y: 0, z: -.0225949846, w: -.000423789024}
        outSlope: {x: 0, y: 0, z: -.0225949846, w: -.000423789024}
        tangentMode: 0
      - time: .13333334
        value: {x: 0, y: 0, z: -.0191139746, w: .999817312}
        inSlope: {x: 0, y: 0, z: .00385908689, w: 7.33137567e-05}
        outSlope: {x: 0, y: 0, z: .00385908689, w: 7.33137567e-05}
        tangentMode: 0
      - time: .150000006
        value: {x: 0, y: 0, z: -.0188408904, w: .999822497}
        inSlope: {x: 0, y: 0, z: .0275088511, w: .00051319605}
        outSlope: {x: 0, y: 0, z: .0275088511, w: .00051319605}
        tangentMode: 0
      - time: .166666672
        value: {x: 0, y: 0, z: -.0181970131, w: .999834418}
        inSlope: {x: 0, y: 0, z: .048354812, w: .000872612116}
        outSlope: {x: 0, y: 0, z: .048354812, w: .000872612116}
        tangentMode: 0
      - time: .183333337
        value: {x: 0, y: 0, z: -.0172290634, w: .999851584}
        inSlope: {x: 0, y: 0, z: .0663971975, w: .0011354686}
        outSlope: {x: 0, y: 0, z: .0663971975, w: .0011354686}
        tangentMode: 0
      - time: .200000003
        value: {x: 0, y: 0, z: -.0159837734, w: .999872267}
        inSlope: {x: 0, y: 0, z: .0816360265, w: .001294613}
        outSlope: {x: 0, y: 0, z: .0816360265, w: .001294613}
        tangentMode: 0
      - time: .216666669
        value: {x: 0, y: 0, z: -.0145078627, w: .999894738}
        inSlope: {x: 0, y: 0, z: .0940711945, w: .00135540974}
        outSlope: {x: 0, y: 0, z: .0940711945, w: .00135540974}
        tangentMode: 0
      - time: .233333334
        value: {x: 0, y: 0, z: -.0128480671, w: .999917448}
        inSlope: {x: 0, y: 0, z: .103702337, w: .00132501137}
        outSlope: {x: 0, y: 0, z: .103702337, w: .00132501137}
        tangentMode: 0
      - time: .25
        value: {x: 0, y: 0, z: -.0110511184, w: .999938905}
        inSlope: {x: 0, y: 0, z: .110529035, w: .00121772243}
        outSlope: {x: 0, y: 0, z: .110529035, w: .00121772243}
        tangentMode: 0
      - time: .266666681
        value: {x: 0, y: 0, z: -.00916376431, w: .999958038}
        inSlope: {x: 0, y: 0, z: .114551187, w: .00104784872}
        outSlope: {x: 0, y: 0, z: .114551187, w: .00104784872}
        tangentMode: 0
      - time: .283333361
        value: {x: 0, y: 0, z: -.00723274238, w: .999973834}
        inSlope: {x: 0, y: 0, z: .115768321, w: .000836848514}
        outSlope: {x: 0, y: 0, z: .115768321, w: .000836848514}
        tangentMode: 0
      - time: .300000042
        value: {x: 0, y: 0, z: -.00530481711, w: .999985933}
        inSlope: {x: 0, y: 0, z: .114180416, w: .000607966911}
        outSlope: {x: 0, y: 0, z: .114180416, w: .000607966911}
        tangentMode: 0
      - time: .316666722
        value: {x: 0, y: 0, z: -.00342672551, w: .999994099}
        inSlope: {x: 0, y: 0, z: .109787159, w: .00038087336}
        outSlope: {x: 0, y: 0, z: .109787159, w: .00038087336}
        tangentMode: 0
      - time: .333333403
        value: {x: 0, y: 0, z: -.0016452421, w: .999998629}
        inSlope: {x: 0, y: 0, z: .102588743, w: .000177025649}
        outSlope: {x: 0, y: 0, z: .102588743, w: .000177025649}
        tangentMode: 0
      - time: .350000083
        value: {x: 0, y: 0, z: -7.09794904e-06, w: 1}
        inSlope: {x: 0, y: 0, z: .0925850868, w: 1.07288288e-05}
        outSlope: {x: 0, y: 0, z: .0925850868, w: 1.07288288e-05}
        tangentMode: 0
      - time: .366666764
        value: {x: 0, y: 0, z: .00144093006, w: .999998987}
        inSlope: {x: 0, y: 0, z: .0797763169, w: -.000105500672}
        outSlope: {x: 0, y: 0, z: .0797763169, w: -.000105500672}
        tangentMode: 0
      - time: .383333325
        value: {x: 0, y: 0, z: .00265210611, w: .999996483}
        inSlope: {x: 0, y: 0, z: .0726710185, w: -.000150204651}
        outSlope: {x: 0, y: 0, z: .0726710185, w: -.000150204651}
        tangentMode: 0
      m_PreInfinity: 2
      m_PostInfinity: 2
    path: Assault Rifle
  m_CompressedRotationCurves: []
  m_PositionCurves:
  - curve:
      serializedVersion: 2
      m_Curve:
      - time: 0
        value: {x: 3.05999994, y: -1.13999999, z: 0}
        inSlope: {x: 3.0000031, y: -.999999046, z: 0}
        outSlope: {x: 3.0000031, y: -.999999046, z: 0}
        tangentMode: 0
      - time: .0399999991
        value: {x: 3.18000007, y: -1.17999995, z: 0}
        inSlope: {x: 2.87500024, y: -1.00000048, z: 0}
        outSlope: {x: 2.87500024, y: -1.00000048, z: 0}
        tangentMode: 0
      - time: .0799999982
        value: {x: 3.28999996, y: -1.22000003, z: 0}
        inSlope: {x: .874999166, y: -.564816594, z: 0}
        outSlope: {x: .874999166, y: -.564816594, z: 0}
        tangentMode: 0
      - time: .119999997
        value: {x: 3.25, y: -1.22518528, z: 0}
        inSlope: {x: 0, y: -.499999523, z: 0}
        outSlope: {x: 0, y: -.499999523, z: 0}
        tangentMode: 0
      - time: .159999996
        value: {x: 3.28999996, y: -1.25999999, z: 0}
        inSlope: {x: -.0149258971, y: -.166527212, z: 0}
        outSlope: {x: -.0149258971, y: -.166527212, z: 0}
        tangentMode: 0
      - time: .383333325
        value: {x: 3.05999994, y: -1.13999999, z: 0}
        inSlope: {x: -1.02985084, y: .537313461, z: 0}
        outSlope: {x: -1.02985084, y: .537313461, z: 0}
        tangentMode: 0
      m_PreInfinity: 2
      m_PostInfinity: 2
    path: Assault Rifle
  - curve:
      serializedVersion: 2
      m_Curve:
      - time: 0
        value: {x: -.75999999, y: .310000002, z: 0}
        inSlope: {x: 0, y: 0, z: 0}
        outSlope: {x: 0, y: 0, z: 0}
        tangentMode: 0
      - time: .383333325
        value: {x: -.75999999, y: .310000002, z: 0}
        inSlope: {x: 0, y: 0, z: 0}
        outSlope: {x: 0, y: 0, z: 0}
        tangentMode: 0
      m_PreInfinity: 2
      m_PostInfinity: 2
    path: Shotgunshot
  m_ScaleCurves: []
  m_FloatCurves: []
  m_PPtrCurves:
  - curve:
    - time: 0
      value: {fileID: 0}
    - time: .383333325
      value: {fileID: 0}
    attribute: m_Sprite
    path: 
    classID: 212
    script: {fileID: 0}
  - curve:
    - time: 0
      value: {fileID: 21300000, guid: b90f5c9c4546e074c8f4a9461534f104, type: 3}
    - time: .383333325
      value: {fileID: 21300000, guid: b90f5c9c4546e074c8f4a9461534f104, type: 3}
    - time: .400000006
      value: {fileID: 21300000, guid: b90f5c9c4546e074c8f4a9461534f104, type: 3}
    attribute: m_Sprite
    path: Assault Rifle
    classID: 212
    script: {fileID: 0}
  - curve:
    - time: 0
      value: {fileID: 21300000, guid: 531dfc5ed03b89244b7403a8348c843b, type: 3}
    - time: .0399999991
      value: {fileID: 21300000, guid: 29c63965afb37744b9514541f7093e1f, type: 3}
    - time: .0799999982
      value: {fileID: 21300000, guid: 30dc2a1235706804cb20f7cf16758a5b, type: 3}
    - time: .119999997
      value: {fileID: 21300000, guid: b2b7ad3099d4ab548ae38993ce8defe5, type: 3}
    - time: .159999996
      value: {fileID: 21300000, guid: 13d559f0857b31e42a323a5ee913f99f, type: 3}
    - time: .200000003
      value: {fileID: 21300000, guid: c5768760e4439c34abcc1ae29657029f, type: 3}
    - time: .383333325
      value: {fileID: 0}
    attribute: m_Sprite
    path: Shotgunshot
    classID: 212
    script: {fileID: 0}
  m_SampleRate: 60
  m_WrapMode: 0
  m_Bounds:
    m_Center: {x: 0, y: 0, z: 0}
    m_Extent: {x: 0, y: 0, z: 0}
  m_ClipBindingConstant:
    genericBindings:
    - path: 4220708536
      attribute: 1
      script: {fileID: 0}
      classID: 4
      customType: 0
      isPPtrCurve: 0
    - path: 4220708536
      attribute: 2
      script: {fileID: 0}
      classID: 4
      customType: 0
      isPPtrCurve: 0
    - path: 0
      attribute: 0
      script: {fileID: 0}
      classID: 212
      customType: 23
      isPPtrCurve: 1
    - path: 4220708536
      attribute: 0
      script: {fileID: 0}
      classID: 212
      customType: 23
      isPPtrCurve: 1
    - path: 1519710144
      attribute: 0
      script: {fileID: 0}
      classID: 212
      customType: 23
      isPPtrCurve: 1
    - path: 1519710144
      attribute: 1
      script: {fileID: 0}
      classID: 4
      customType: 0
      isPPtrCurve: 0
    pptrCurveMapping:
    - {fileID: 0}
    - {fileID: 0}
    - {fileID: 21300000, guid: b90f5c9c4546e074c8f4a9461534f104, type: 3}
    - {fileID: 21300000, guid: b90f5c9c4546e074c8f4a9461534f104, type: 3}
    - {fileID: 21300000, guid: b90f5c9c4546e074c8f4a9461534f104, type: 3}
    - {fileID: 21300000, guid: 531dfc5ed03b89244b7403a8348c843b, type: 3}
    - {fileID: 21300000, guid: 29c63965afb37744b9514541f7093e1f, type: 3}
    - {fileID: 21300000, guid: 30dc2a1235706804cb20f7cf16758a5b, type: 3}
    - {fileID: 21300000, guid: b2b7ad3099d4ab548ae38993ce8defe5, type: 3}
    - {fileID: 21300000, guid: 13d559f0857b31e42a323a5ee913f99f, type: 3}
    - {fileID: 21300000, guid: c5768760e4439c34abcc1ae29657029f, type: 3}
    - {fileID: 0}
  m_AnimationClipSettings:
    serializedVersion: 2
    m_StartTime: 0
    m_StopTime: .416666687
    m_OrientationOffsetY: 0
    m_Level: 0
    m_CycleOffset: 0
    m_LoopTime: 1
    m_LoopBlend: 0
    m_LoopBlendOrientation: 0
    m_LoopBlendPositionY: 0
    m_LoopBlendPositionXZ: 0
    m_KeepOriginalOrientation: 0
    m_KeepOriginalPositionY: 1
    m_KeepOriginalPositionXZ: 0
    m_HeightFromFeet: 0
    m_Mirror: 0
  m_EditorCurves:
  - curve:
      serializedVersion: 2
      m_Curve:
      - time: 0
        value: 3.05999994
        inSlope: 3.0000031
        outSlope: 3.0000031
        tangentMode: 10
      - time: .0399999991
        value: 3.18000007
        inSlope: 2.87500024
        outSlope: 2.87500024
        tangentMode: 10
      - time: .0799999982
        value: 3.28999996
        inSlope: .874999166
        outSlope: .874999166
        tangentMode: 10
      - time: .119999997
        value: 3.25
        inSlope: 0
        outSlope: 0
        tangentMode: 10
      - time: .159999996
        value: 3.28999996
        inSlope: -.0149258971
        outSlope: -.0149258971
        tangentMode: 10
      - time: .383333325
        value: 3.05999994
        inSlope: -1.02985084
        outSlope: -1.02985084
        tangentMode: 10
      m_PreInfinity: 2
      m_PostInfinity: 2
    attribute: m_LocalPosition.x
    path: Assault Rifle
    classID: 4
    script: {fileID: 0}
  - curve:
      serializedVersion: 2
      m_Curve:
      - time: 0
        value: -1.13999999
        inSlope: -.999999046
        outSlope: -.999999046
        tangentMode: 10
      - time: .0399999991
        value: -1.17999995
        inSlope: -1.00000048
        outSlope: -1.00000048
        tangentMode: 10
      - time: .0799999982
        value: -1.22000003
        inSlope: -.564816594
        outSlope: -.564816594
        tangentMode: 10
      - time: .119999997
        value: -1.22518528
        inSlope: -.499999523
        outSlope: -.499999523
        tangentMode: 10
      - time: .159999996
        value: -1.25999999
        inSlope: -.166527212
        outSlope: -.166527212
        tangentMode: 10
      - time: .383333325
        value: -1.13999999
        inSlope: .537313461
        outSlope: .537313461
        tangentMode: 10
      m_PreInfinity: 2
      m_PostInfinity: 2
    attribute: m_LocalPosition.y
    path: Assault Rifle
    classID: 4
    script: {fileID: 0}
  - curve:
      serializedVersion: 2
      m_Curve:
      - time: 0
        value: 0
        inSlope: 0
        outSlope: 0
        tangentMode: 10
      - time: .0399999991
        value: 0
        inSlope: 0
        outSlope: 0
        tangentMode: 10
      - time: .0799999982
        value: 0
        inSlope: 0
        outSlope: 0
        tangentMode: 10
      - time: .119999997
        value: 0
        inSlope: 0
        outSlope: 0
        tangentMode: 10
      - time: .159999996
        value: 0
        inSlope: 0
        outSlope: 0
        tangentMode: 10
      - time: .383333325
        value: 0
        inSlope: 0
        outSlope: 0
        tangentMode: 10
      m_PreInfinity: 2
      m_PostInfinity: 2
    attribute: m_LocalPosition.z
    path: Assault Rifle
    classID: 4
    script: {fileID: 0}
  - curve:
      serializedVersion: 2
      m_Curve:
      - time: 0
        value: -.75999999
        inSlope: 0
        outSlope: 0
        tangentMode: 10
      - time: .383333325
        value: -.75999999
        inSlope: 0
        outSlope: 0
        tangentMode: 10
      m_PreInfinity: 2
      m_PostInfinity: 2
    attribute: m_LocalPosition.x
    path: Shotgunshot
    classID: 4
    script: {fileID: 0}
  - curve:
      serializedVersion: 2
      m_Curve:
      - time: 0
        value: .310000002
        inSlope: 0
        outSlope: 0
        tangentMode: 10
      - time: .383333325
        value: .310000002
        inSlope: 0
        outSlope: 0
        tangentMode: 10
      m_PreInfinity: 2
      m_PostInfinity: 2
    attribute: m_LocalPosition.y
    path: Shotgunshot
    classID: 4
    script: {fileID: 0}
  - curve:
      serializedVersion: 2
      m_Curve:
      - time: 0
        value: 0
        inSlope: 0
        outSlope: 0
        tangentMode: 10
      - time: .383333325
        value: 0
        inSlope: 0
        outSlope: 0
        tangentMode: 10
      m_PreInfinity: 2
      m_PostInfinity: 2
    attribute: m_LocalPosition.z
    path: Shotgunshot
    classID: 4
    script: {fileID: 0}
  - curve:
      serializedVersion: 2
      m_Curve:
      - time: 0
        value: 0
        inSlope: 0
        outSlope: 0
        tangentMode: 0
      - time: .0166666675
        value: 0
        inSlope: 0
        outSlope: 0
        tangentMode: 0
      - time: .0333333351
        value: 0
        inSlope: 0
        outSlope: 0
        tangentMode: 0
      - time: .0500000045
        value: 0
        inSlope: 0
        outSlope: 0
        tangentMode: 0
      - time: .0666666701
        value: 0
        inSlope: 0
        outSlope: 0
        tangentMode: 0
      - time: .0833333358
        value: 0
        inSlope: 0
        outSlope: 0
        tangentMode: 0
      - time: .100000001
        value: 0
        inSlope: 0
        outSlope: 0
        tangentMode: 0
      - time: .116666667
        value: 0
        inSlope: 0
        outSlope: 0
        tangentMode: 0
      - time: .13333334
        value: 0
        inSlope: 0
        outSlope: 0
        tangentMode: 0
      - time: .150000006
        value: 0
        inSlope: 0
        outSlope: 0
        tangentMode: 0
      - time: .166666672
        value: 0
        inSlope: 0
        outSlope: 0
        tangentMode: 0
      - time: .183333337
        value: 0
        inSlope: 0
        outSlope: 0
        tangentMode: 0
      - time: .200000003
        value: 0
        inSlope: 0
        outSlope: 0
        tangentMode: 0
      - time: .216666669
        value: 0
        inSlope: 0
        outSlope: 0
        tangentMode: 0
      - time: .233333334
        value: 0
        inSlope: 0
        outSlope: 0
        tangentMode: 0
      - time: .25
        value: 0
        inSlope: 0
        outSlope: 0
        tangentMode: 0
      - time: .266666681
        value: 0
        inSlope: 0
        outSlope: 0
        tangentMode: 0
      - time: .283333361
        value: 0
        inSlope: 0
        outSlope: 0
        tangentMode: 0
      - time: .300000042
        value: 0
        inSlope: 0
        outSlope: 0
        tangentMode: 0
      - time: .316666722
        value: 0
        inSlope: 0
        outSlope: 0
        tangentMode: 0
      - time: .333333403
        value: 0
        inSlope: 0
        outSlope: 0
        tangentMode: 0
      - time: .350000083
        value: 0
        inSlope: 0
        outSlope: 0
        tangentMode: 0
      - time: .366666764
        value: 0
        inSlope: 0
        outSlope: 0
        tangentMode: 0
      - time: .383333325
        value: 0
        inSlope: 0
        outSlope: 0
        tangentMode: 0
      m_PreInfinity: 2
      m_PostInfinity: 2
    attribute: m_LocalRotation.x
    path: Assault Rifle
    classID: 4
    script: {fileID: 0}
  - curve:
      serializedVersion: 2
      m_Curve:
      - time: 0
        value: 0
        inSlope: 0
        outSlope: 0
        tangentMode: 0
      - time: .0166666675
        value: 0
        inSlope: 0
        outSlope: 0
        tangentMode: 0
      - time: .0333333351
        value: 0
        inSlope: 0
        outSlope: 0
        tangentMode: 0
      - time: .0500000045
        value: 0
        inSlope: 0
        outSlope: 0
        tangentMode: 0
      - time: .0666666701
        value: 0
        inSlope: 0
        outSlope: 0
        tangentMode: 0
      - time: .0833333358
        value: 0
        inSlope: 0
        outSlope: 0
        tangentMode: 0
      - time: .100000001
        value: 0
        inSlope: 0
        outSlope: 0
        tangentMode: 0
      - time: .116666667
        value: 0
        inSlope: 0
        outSlope: 0
        tangentMode: 0
      - time: .13333334
        value: 0
        inSlope: 0
        outSlope: 0
        tangentMode: 0
      - time: .150000006
        value: 0
        inSlope: 0
        outSlope: 0
        tangentMode: 0
      - time: .166666672
        value: 0
        inSlope: 0
        outSlope: 0
        tangentMode: 0
      - time: .183333337
        value: 0
        inSlope: 0
        outSlope: 0
        tangentMode: 0
      - time: .200000003
        value: 0
        inSlope: 0
        outSlope: 0
        tangentMode: 0
      - time: .216666669
        value: 0
        inSlope: 0
        outSlope: 0
        tangentMode: 0
      - time: .233333334
        value: 0
        inSlope: 0
        outSlope: 0
        tangentMode: 0
      - time: .25
        value: 0
        inSlope: 0
        outSlope: 0
        tangentMode: 0
      - time: .266666681
        value: 0
        inSlope: 0
        outSlope: 0
        tangentMode: 0
      - time: .283333361
        value: 0
        inSlope: 0
        outSlope: 0
        tangentMode: 0
      - time: .300000042
        value: 0
        inSlope: 0
        outSlope: 0
        tangentMode: 0
      - time: .316666722
        value: 0
        inSlope: 0
        outSlope: 0
        tangentMode: 0
      - time: .333333403
        value: 0
        inSlope: 0
        outSlope: 0
        tangentMode: 0
      - time: .350000083
        value: 0
        inSlope: 0
        outSlope: 0
        tangentMode: 0
      - time: .366666764
        value: 0
        inSlope: 0
        outSlope: 0
        tangentMode: 0
      - time: .383333325
        value: 0
        inSlope: 0
        outSlope: 0
        tangentMode: 0
      m_PreInfinity: 2
      m_PostInfinity: 2
    attribute: m_LocalRotation.y
    path: Assault Rifle
    classID: 4
    script: {fileID: 0}
  - curve:
      serializedVersion: 2
      m_Curve:
      - time: 0
        value: .00265210611
        inSlope: -.2705957
        outSlope: -.2705957
        tangentMode: 0
      - time: .0166666675
        value: -.00185782241
        inSlope: -.282691509
        outSlope: -.282691509
        tangentMode: 0
      - time: .0333333351
        value: -.00677094469
        inSlope: -.28671813
        outSlope: -.28671813
        tangentMode: 0
      - time: .0500000045
        value: -.0114150951
        inSlope: -.250418216
        outSlope: -.250418216
        tangentMode: 0
      - time: .0666666701
        value: -.015118219
        inSlope: -.174779028
        outSlope: -.174779028
        tangentMode: 0
      - time: .0833333358
        value: -.0172410626
        inSlope: -.0972776935
        outSlope: -.0972776935
        tangentMode: 0
      - time: .100000001
        value: -.0183608085
        inSlope: -.051853925
        outSlope: -.051853925
        tangentMode: 0
      - time: .116666667
        value: -.0189695265
        inSlope: -.0225949846
        outSlope: -.0225949846
        tangentMode: 0
      - time: .13333334
        value: -.0191139746
        inSlope: .00385908689
        outSlope: .00385908689
        tangentMode: 0
      - time: .150000006
        value: -.0188408904
        inSlope: .0275088511
        outSlope: .0275088511
        tangentMode: 0
      - time: .166666672
        value: -.0181970131
        inSlope: .048354812
        outSlope: .048354812
        tangentMode: 0
      - time: .183333337
        value: -.0172290634
        inSlope: .0663971975
        outSlope: .0663971975
        tangentMode: 0
      - time: .200000003
        value: -.0159837734
        inSlope: .0816360265
        outSlope: .0816360265
        tangentMode: 0
      - time: .216666669
        value: -.0145078627
        inSlope: .0940711945
        outSlope: .0940711945
        tangentMode: 0
      - time: .233333334
        value: -.0128480671
        inSlope: .103702337
        outSlope: .103702337
        tangentMode: 0
      - time: .25
        value: -.0110511184
        inSlope: .110529035
        outSlope: .110529035
        tangentMode: 0
      - time: .266666681
        value: -.00916376431
        inSlope: .114551187
        outSlope: .114551187
        tangentMode: 0
      - time: .283333361
        value: -.00723274238
        inSlope: .115768321
        outSlope: .115768321
        tangentMode: 0
      - time: .300000042
        value: -.00530481711
        inSlope: .114180416
        outSlope: .114180416
        tangentMode: 0
      - time: .316666722
        value: -.00342672551
        inSlope: .109787159
        outSlope: .109787159
        tangentMode: 0
      - time: .333333403
        value: -.0016452421
        inSlope: .102588743
        outSlope: .102588743
        tangentMode: 0
      - time: .350000083
        value: -7.09794904e-06
        inSlope: .0925850868
        outSlope: .0925850868
        tangentMode: 0
      - time: .366666764
        value: .00144093006
        inSlope: .0797763169
        outSlope: .0797763169
        tangentMode: 0
      - time: .383333325
        value: .00265210611
        inSlope: .0726710185
        outSlope: .0726710185
        tangentMode: 0
      m_PreInfinity: 2
      m_PostInfinity: 2
    attribute: m_LocalRotation.z
    path: Assault Rifle
    classID: 4
    script: {fileID: 0}
  - curve:
      serializedVersion: 2
      m_Curve:
      - time: 0
        value: .999996483
        inSlope: .000107288353
        outSlope: .000107288353
        tangentMode: 0
      - time: .0166666675
        value: .999998271
        inSlope: -.000582933368
        outSlope: -.000582933368
        tangentMode: 0
      - time: .0333333351
        value: .999977052
        inSlope: -.00190258003
        outSlope: -.00190258003
        tangentMode: 0
      - time: .0500000045
        value: .999934852
        inSlope: -.00273942947
        outSlope: -.00273942947
        tangentMode: 0
      - time: .0666666701
        value: .999885738
        inSlope: -.00250518345
        outSlope: -.00250518345
        tangentMode: 0
      - time: .0833333358
        value: .999851346
        inSlope: -.00162899517
        outSlope: -.00162899517
        tangentMode: 0
      - time: .100000001
        value: .999831438
        inSlope: -.000938773272
        outSlope: -.000938773272
        tangentMode: 0
      - time: .116666667
        value: .999820054
        inSlope: -.000423789024
        outSlope: -.000423789024
        tangentMode: 0
      - time: .13333334
        value: .999817312
        inSlope: 7.33137567e-05
        outSlope: 7.33137567e-05
        tangentMode: 0
      - time: .150000006
        value: .999822497
        inSlope: .00051319605
        outSlope: .00051319605
        tangentMode: 0
      - time: .166666672
        value: .999834418
        inSlope: .000872612116
        outSlope: .000872612116
        tangentMode: 0
      - time: .183333337
        value: .999851584
        inSlope: .0011354686
        outSlope: .0011354686
        tangentMode: 0
      - time: .200000003
        value: .999872267
        inSlope: .001294613
        outSlope: .001294613
        tangentMode: 0
      - time: .216666669
        value: .999894738
        inSlope: .00135540974
        outSlope: .00135540974
        tangentMode: 0
      - time: .233333334
        value: .999917448
        inSlope: .00132501137
        outSlope: .00132501137
        tangentMode: 0
      - time: .25
        value: .999938905
        inSlope: .00121772243
        outSlope: .00121772243
        tangentMode: 0
      - time: .266666681
        value: .999958038
        inSlope: .00104784872
        outSlope: .00104784872
        tangentMode: 0
      - time: .283333361
        value: .999973834
        inSlope: .000836848514
        outSlope: .000836848514
        tangentMode: 0
      - time: .300000042
        value: .999985933
        inSlope: .000607966911
        outSlope: .000607966911
        tangentMode: 0
      - time: .316666722
        value: .999994099
        inSlope: .00038087336
        outSlope: .00038087336
        tangentMode: 0
      - time: .333333403
        value: .999998629
        inSlope: .000177025649
        outSlope: .000177025649
        tangentMode: 0
      - time: .350000083
        value: 1
        inSlope: 1.07288288e-05
        outSlope: 1.07288288e-05
        tangentMode: 0
      - time: .366666764
        value: .999998987
        inSlope: -.000105500672
        outSlope: -.000105500672
        tangentMode: 0
      - time: .383333325
        value: .999996483
        inSlope: -.000150204651
        outSlope: -.000150204651
        tangentMode: 0
      m_PreInfinity: 2
      m_PostInfinity: 2
    attribute: m_LocalRotation.w
    path: Assault Rifle
    classID: 4
    script: {fileID: 0}
  m_EulerEditorCurves:
  - curve:
      serializedVersion: 2
      m_Curve:
      - time: 0
        value: 0
        inSlope: 0
        outSlope: 0
        tangentMode: 10
      - time: .0799999982
        value: 0
        inSlope: 0
        outSlope: 0
        tangentMode: 10
      - time: .383333325
        value: 0
        inSlope: 0
        outSlope: 0
        tangentMode: 10
      m_PreInfinity: 2
      m_PostInfinity: 2
    attribute: localEulerAnglesBaked.x
    path: Assault Rifle
    classID: 4
    script: {fileID: 0}
  - curve:
      serializedVersion: 2
      m_Curve:
      - time: 0
        value: 0
        inSlope: 0
        outSlope: 0
        tangentMode: 10
      - time: .0799999982
        value: 0
        inSlope: 0
        outSlope: 0
        tangentMode: 10
      - time: .383333325
        value: 0
        inSlope: 0
        outSlope: 0
        tangentMode: 10
      m_PreInfinity: 2
      m_PostInfinity: 2
    attribute: localEulerAnglesBaked.y
    path: Assault Rifle
    classID: 4
    script: {fileID: 0}
  - curve:
      serializedVersion: 2
      m_Curve:
      - time: 0
        value: .303909302
        inSlope: -28.0815125
        outSlope: -28.0815125
        tangentMode: 10
      - time: .0799999982
        value: -1.94261169
        inSlope: -10.3376999
        outSlope: -10.3376999
        tangentMode: 10
      - time: .383333325
        value: .303909302
        inSlope: 7.40611315
        outSlope: 7.40611315
        tangentMode: 10
      m_PreInfinity: 2
      m_PostInfinity: 2
    attribute: localEulerAnglesBaked.z
    path: Assault Rifle
    classID: 4
    script: {fileID: 0}
  m_HasGenericRootTransform: 0
  m_HasMotionFloatCurves: 0
  m_GenerateMotionCurves: 0
  m_Events: []
