%YAML 1.1
%TAG !u! tag:unity3d.com,2011:
--- !u!74 &7400000
AnimationClip:
  m_ObjectHideFlags: 0
  m_PrefabParentObject: {fileID: 0}
  m_PrefabInternal: {fileID: 0}
  m_Name: AimRifle
  serializedVersion: 6
  m_Legacy: 0
  m_Compressed: 0
  m_UseHighQualityCurve: 1
  m_RotationCurves: []
  m_CompressedRotationCurves: []
  m_PositionCurves: []
  m_ScaleCurves: []
  m_FloatCurves: []
  m_PPtrCurves:
  - curve:
    - time: 0
      value: {fileID: 21300000, guid: e14c4d16f68a020438028d24c1273469, type: 3}
    - time: .0833333358
      value: {fileID: 21300000, guid: 6e18257d064b320459e92a032c171021, type: 3}
    - time: .166666672
      value: {fileID: 21300000, guid: 7368e8aa18a60764999d06136e007c90, type: 3}
    - time: .25
      value: {fileID: 21300000, guid: babbb51c6f70e3045beb6b9f2f6b9d9e, type: 3}
    - time: .333333343
      value: {fileID: 21300000, guid: 54ad5333d68b2864995d0dce96c1261e, type: 3}
    - time: .416666657
      value: {fileID: 21300000, guid: 6d7dd886826c52445a5c12baedf7d24d, type: 3}
    - time: .5
      value: {fileID: 21300000, guid: 22809edaa3b383045a99f5d4e0567221, type: 3}
    - time: .583333313
      value: {fileID: 21300000, guid: f80226aedfe5bc34cb8ab29db3a50187, type: 3}
    - time: .666666687
      value: {fileID: 21300000, guid: 4764b064ee5d3904d9946aa03f995748, type: 3}
    - time: .75
      value: {fileID: 21300000, guid: 5c2c429d69c57f34fbb5a4ef37ca4447, type: 3}
    - time: .833333313
      value: {fileID: 21300000, guid: d010121881a815b4a9d6b0a9d81113fe, type: 3}
    - time: .916666687
      value: {fileID: 21300000, guid: fc0c0046950e2ba44be73dd2068b9e01, type: 3}
    - time: 1
      value: {fileID: 21300000, guid: a163630d4e7199a478e243b9a89338ca, type: 3}
    - time: 1.08333337
      value: {fileID: 21300000, guid: 5801391250cf8b049b433ef3b78e5442, type: 3}
    attribute: m_Sprite
    path: 
    classID: 212
    script: {fileID: 0}
  m_SampleRate: 12
  m_WrapMode: 0
  m_Bounds:
    m_Center: {x: 0, y: 0, z: 0}
    m_Extent: {x: 0, y: 0, z: 0}
  m_ClipBindingConstant:
    genericBindings:
    - path: 0
      attribute: 0
      script: {fileID: 0}
      classID: 212
      customType: 23
      isPPtrCurve: 1
    pptrCurveMapping:
    - {fileID: 21300000, guid: e14c4d16f68a020438028d24c1273469, type: 3}
    - {fileID: 21300000, guid: 6e18257d064b320459e92a032c171021, type: 3}
    - {fileID: 21300000, guid: 7368e8aa18a60764999d06136e007c90, type: 3}
    - {fileID: 21300000, guid: babbb51c6f70e3045beb6b9f2f6b9d9e, type: 3}
    - {fileID: 21300000, guid: 54ad5333d68b2864995d0dce96c1261e, type: 3}
    - {fileID: 21300000, guid: 6d7dd886826c52445a5c12baedf7d24d, type: 3}
    - {fileID: 21300000, guid: 22809edaa3b383045a99f5d4e0567221, type: 3}
    - {fileID: 21300000, guid: f80226aedfe5bc34cb8ab29db3a50187, type: 3}
    - {fileID: 21300000, guid: 4764b064ee5d3904d9946aa03f995748, type: 3}
    - {fileID: 21300000, guid: 5c2c429d69c57f34fbb5a4ef37ca4447, type: 3}
    - {fileID: 21300000, guid: d010121881a815b4a9d6b0a9d81113fe, type: 3}
    - {fileID: 21300000, guid: fc0c0046950e2ba44be73dd2068b9e01, type: 3}
    - {fileID: 21300000, guid: a163630d4e7199a478e243b9a89338ca, type: 3}
    - {fileID: 21300000, guid: 5801391250cf8b049b433ef3b78e5442, type: 3}
  m_AnimationClipSettings:
    serializedVersion: 2
    m_StartTime: 0
    m_StopTime: 1.16666675
    m_OrientationOffsetY: 0
    m_Level: 0
    m_CycleOffset: 0
    m_LoopTime: 1
    m_LoopBlend: 0
    m_LoopBlendOrientation: 0
    m_LoopBlendPositionY: 0
    m_LoopBlendPositionXZ: 0
    m_KeepOriginalOrientation: 0
    m_KeepOriginalPositionY: 1
    m_KeepOriginalPositionXZ: 0
    m_HeightFromFeet: 0
    m_Mirror: 0
  m_EditorCurves: []
  m_EulerEditorCurves: []
  m_HasGenericRootTransform: 0
  m_HasMotionFloatCurves: 0
  m_GenerateMotionCurves: 0
  m_Events: []
