%YAML 1.1
%TAG !u! tag:unity3d.com,2011:
--- !u!74 &7400000
AnimationClip:
  m_ObjectHideFlags: 0
  m_PrefabParentObject: {fileID: 0}
  m_PrefabInternal: {fileID: 0}
  m_Name: Wind Animation
  serializedVersion: 6
  m_Legacy: 0
  m_Compressed: 0
  m_UseHighQualityCurve: 1
  m_RotationCurves: []
  m_CompressedRotationCurves: []
  m_PositionCurves: []
  m_ScaleCurves: []
  m_FloatCurves: []
  m_PPtrCurves:
  - curve:
    - time: 0
      value: {fileID: 21300000, guid: b171774046e2f6e48b60e263969e7d50, type: 3}
    - time: .166666672
      value: {fileID: 21300000, guid: ea8a976f86590d04e8c85e32715fbdba, type: 3}
    - time: .333333343
      value: {fileID: 21300000, guid: 30b19df4f0442904cafbf0f0f68cd1b6, type: 3}
    - time: .5
      value: {fileID: 21300000, guid: 6381b648dbc4be54d998439d39d87756, type: 3}
    - time: .666666687
      value: {fileID: 21300000, guid: 67b138e6b348a0745b821cfc905ad310, type: 3}
    - time: .833333313
      value: {fileID: 21300000, guid: fe209cec2b8fb734d83f528682f68a79, type: 3}
    - time: 1
      value: {fileID: 21300000, guid: 39e153e34956d49489b20d367395b472, type: 3}
    - time: 1.16666663
      value: {fileID: 21300000, guid: a54dd05ef86dc9c43a6c2685f88bc409, type: 3}
    attribute: m_Sprite
    path: 
    classID: 212
    script: {fileID: 0}
  m_SampleRate: 6
  m_WrapMode: 0
  m_Bounds:
    m_Center: {x: 0, y: 0, z: 0}
    m_Extent: {x: 0, y: 0, z: 0}
  m_ClipBindingConstant:
    genericBindings:
    - path: 0
      attribute: 0
      script: {fileID: 0}
      classID: 212
      customType: 23
      isPPtrCurve: 1
    pptrCurveMapping:
    - {fileID: 21300000, guid: b171774046e2f6e48b60e263969e7d50, type: 3}
    - {fileID: 21300000, guid: ea8a976f86590d04e8c85e32715fbdba, type: 3}
    - {fileID: 21300000, guid: 30b19df4f0442904cafbf0f0f68cd1b6, type: 3}
    - {fileID: 21300000, guid: 6381b648dbc4be54d998439d39d87756, type: 3}
    - {fileID: 21300000, guid: 67b138e6b348a0745b821cfc905ad310, type: 3}
    - {fileID: 21300000, guid: fe209cec2b8fb734d83f528682f68a79, type: 3}
    - {fileID: 21300000, guid: 39e153e34956d49489b20d367395b472, type: 3}
    - {fileID: 21300000, guid: a54dd05ef86dc9c43a6c2685f88bc409, type: 3}
  m_AnimationClipSettings:
    serializedVersion: 2
    m_StartTime: 0
    m_StopTime: 1.33333325
    m_OrientationOffsetY: 0
    m_Level: 0
    m_CycleOffset: 0
    m_LoopTime: 0
    m_LoopBlend: 0
    m_LoopBlendOrientation: 0
    m_LoopBlendPositionY: 0
    m_LoopBlendPositionXZ: 0
    m_KeepOriginalOrientation: 0
    m_KeepOriginalPositionY: 1
    m_KeepOriginalPositionXZ: 0
    m_HeightFromFeet: 0
    m_Mirror: 0
  m_EditorCurves: []
  m_EulerEditorCurves: []
  m_HasGenericRootTransform: 0
  m_HasMotionFloatCurves: 0
  m_GenerateMotionCurves: 0
  m_Events: []
