%YAML 1.1
%TAG !u! tag:unity3d.com,2011:
--- !u!74 &7400000
AnimationClip:
  m_ObjectHideFlags: 0
  m_PrefabParentObject: {fileID: 0}
  m_PrefabInternal: {fileID: 0}
  m_Name: Milestone
  serializedVersion: 6
  m_Legacy: 0
  m_Compressed: 0
  m_UseHighQualityCurve: 1
  m_RotationCurves: []
  m_CompressedRotationCurves: []
  m_EulerCurves: []
  m_PositionCurves: []
  m_ScaleCurves: []
  m_FloatCurves: []
  m_PPtrCurves:
  - curve:
    - time: 0
      value: {fileID: 21300000, guid: c7349d97349a02b4f84d279497ea6f8b, type: 3}
    - time: 0.083333336
      value: {fileID: 21300000, guid: 39961ad48adf55542b0f20f2444eb10b, type: 3}
    - time: 0.16666667
      value: {fileID: 21300000, guid: 11e15a20b4d50d74e846e173f27440ea, type: 3}
    - time: 0.25
      value: {fileID: 21300000, guid: d6cc41ee9019a4145b8d2cab506608d1, type: 3}
    - time: 0.33333334
      value: {fileID: 21300000, guid: 39449a6717315344880f3263cbb901b3, type: 3}
    - time: 0.41666666
      value: {fileID: 21300000, guid: ac886b70faee06b478c1746a7989332e, type: 3}
    - time: 0.5
      value: {fileID: 21300000, guid: 9b06e88da72a53249b2227832cbeda41, type: 3}
    - time: 0.5833333
      value: {fileID: 21300000, guid: 59e43ccbc03234b49854cfc6144c808f, type: 3}
    - time: 0.6666667
      value: {fileID: 21300000, guid: c52ef1f9f716a3f40a17b4f1ce2650e1, type: 3}
    - time: 0.9166667
      value: {fileID: 21300000, guid: e2d078a4523bc9a448fa81e88716ef28, type: 3}
    - time: 1
      value: {fileID: 21300000, guid: 59e43ccbc03234b49854cfc6144c808f, type: 3}
    - time: 1.0833334
      value: {fileID: 21300000, guid: c52ef1f9f716a3f40a17b4f1ce2650e1, type: 3}
    - time: 1.1666666
      value: {fileID: 21300000, guid: ac886b70faee06b478c1746a7989332e, type: 3}
    - time: 1.25
      value: {fileID: 21300000, guid: e12e3a7a4438d2040aefc480b1622337, type: 3}
    - time: 1.3333334
      value: {fileID: 21300000, guid: 9b06e88da72a53249b2227832cbeda41, type: 3}
    - time: 1.5
      value: {fileID: 21300000, guid: e12e3a7a4438d2040aefc480b1622337, type: 3}
    - time: 1.5833334
      value: {fileID: 21300000, guid: 9b06e88da72a53249b2227832cbeda41, type: 3}
    - time: 1.75
      value: {fileID: 21300000, guid: e12e3a7a4438d2040aefc480b1622337, type: 3}
    - time: 2
      value: {fileID: 21300000, guid: 39449a6717315344880f3263cbb901b3, type: 3}
    - time: 2.1666667
      value: {fileID: 21300000, guid: ac886b70faee06b478c1746a7989332e, type: 3}
    - time: 2.25
      value: {fileID: 21300000, guid: ac886b70faee06b478c1746a7989332e, type: 3}
    - time: 2.4166667
      value: {fileID: 21300000, guid: d6cc41ee9019a4145b8d2cab506608d1, type: 3}
    - time: 2.5
      value: {fileID: 21300000, guid: 11e15a20b4d50d74e846e173f27440ea, type: 3}
    - time: 2.6666667
      value: {fileID: 21300000, guid: 39961ad48adf55542b0f20f2444eb10b, type: 3}
    - time: 2.75
      value: {fileID: 21300000, guid: e12e3a7a4438d2040aefc480b1622337, type: 3}
    - time: 2.9166667
      value: {fileID: 21300000, guid: c7349d97349a02b4f84d279497ea6f8b, type: 3}
    - time: 3.0833333
      value: {fileID: 21300000, guid: 59e43ccbc03234b49854cfc6144c808f, type: 3}
    - time: 3.1666667
      value: {fileID: 21300000, guid: c52ef1f9f716a3f40a17b4f1ce2650e1, type: 3}
    - time: 3.25
      value: {fileID: 21300000, guid: ac886b70faee06b478c1746a7989332e, type: 3}
    - time: 3.3333333
      value: {fileID: 21300000, guid: c52ef1f9f716a3f40a17b4f1ce2650e1, type: 3}
    - time: 3.4166667
      value: {fileID: 21300000, guid: e12e3a7a4438d2040aefc480b1622337, type: 3}
    - time: 3.5
      value: {fileID: 21300000, guid: 9b06e88da72a53249b2227832cbeda41, type: 3}
    - time: 3.6666667
      value: {fileID: 21300000, guid: c52ef1f9f716a3f40a17b4f1ce2650e1, type: 3}
    - time: 3.75
      value: {fileID: 21300000, guid: ac886b70faee06b478c1746a7989332e, type: 3}
    - time: 3.8333333
      value: {fileID: 21300000, guid: c52ef1f9f716a3f40a17b4f1ce2650e1, type: 3}
    - time: 3.9166667
      value: {fileID: 21300000, guid: 9b06e88da72a53249b2227832cbeda41, type: 3}
    - time: 4.0833335
      value: {fileID: 21300000, guid: ac886b70faee06b478c1746a7989332e, type: 3}
    - time: 4.1666665
      value: {fileID: 21300000, guid: ac886b70faee06b478c1746a7989332e, type: 3}
    - time: 4.25
      value: {fileID: 21300000, guid: 9b06e88da72a53249b2227832cbeda41, type: 3}
    - time: 4.3333335
      value: {fileID: 21300000, guid: c7349d97349a02b4f84d279497ea6f8b, type: 3}
    - time: 4.4166665
      value: {fileID: 21300000, guid: 39961ad48adf55542b0f20f2444eb10b, type: 3}
    - time: 4.5
      value: {fileID: 21300000, guid: 11e15a20b4d50d74e846e173f27440ea, type: 3}
    - time: 4.5833335
      value: {fileID: 21300000, guid: d6cc41ee9019a4145b8d2cab506608d1, type: 3}
    - time: 4.6666665
      value: {fileID: 21300000, guid: 39449a6717315344880f3263cbb901b3, type: 3}
    - time: 4.75
      value: {fileID: 21300000, guid: e2d078a4523bc9a448fa81e88716ef28, type: 3}
    - time: 4.8333335
      value: {fileID: 21300000, guid: 59e43ccbc03234b49854cfc6144c808f, type: 3}
    - time: 4.9166665
      value: {fileID: 21300000, guid: c52ef1f9f716a3f40a17b4f1ce2650e1, type: 3}
    - time: 5
      value: {fileID: 21300000, guid: ac886b70faee06b478c1746a7989332e, type: 3}
    - time: 5.0833335
      value: {fileID: 21300000, guid: e12e3a7a4438d2040aefc480b1622337, type: 3}
    - time: 5.1666665
      value: {fileID: 21300000, guid: 9b06e88da72a53249b2227832cbeda41, type: 3}
    - time: 5.25
      value: {fileID: 21300000, guid: d6cc41ee9019a4145b8d2cab506608d1, type: 3}
    - time: 5.3333335
      value: {fileID: 21300000, guid: e12e3a7a4438d2040aefc480b1622337, type: 3}
    - time: 5.4166665
      value: {fileID: 21300000, guid: e12e3a7a4438d2040aefc480b1622337, type: 3}
    - time: 5.5
      value: {fileID: 21300000, guid: 59e43ccbc03234b49854cfc6144c808f, type: 3}
    - time: 5.5833335
      value: {fileID: 21300000, guid: d6cc41ee9019a4145b8d2cab506608d1, type: 3}
    - time: 5.6666665
      value: {fileID: 21300000, guid: 39449a6717315344880f3263cbb901b3, type: 3}
    - time: 5.75
      value: {fileID: 21300000, guid: c52ef1f9f716a3f40a17b4f1ce2650e1, type: 3}
    - time: 5.8333335
      value: {fileID: 21300000, guid: 59e43ccbc03234b49854cfc6144c808f, type: 3}
    - time: 5.9166665
      value: {fileID: 21300000, guid: d6cc41ee9019a4145b8d2cab506608d1, type: 3}
    - time: 6
      value: {fileID: 21300000, guid: ac886b70faee06b478c1746a7989332e, type: 3}
    - time: 6.0833335
      value: {fileID: 21300000, guid: c52ef1f9f716a3f40a17b4f1ce2650e1, type: 3}
    - time: 6.1666665
      value: {fileID: 21300000, guid: 59e43ccbc03234b49854cfc6144c808f, type: 3}
    - time: 6.3333335
      value: {fileID: 21300000, guid: 39449a6717315344880f3263cbb901b3, type: 3}
    - time: 6.4166665
      value: {fileID: 21300000, guid: c52ef1f9f716a3f40a17b4f1ce2650e1, type: 3}
    - time: 6.5
      value: {fileID: 21300000, guid: e12e3a7a4438d2040aefc480b1622337, type: 3}
    - time: 6.5833335
      value: {fileID: 21300000, guid: 9b06e88da72a53249b2227832cbeda41, type: 3}
    - time: 6.6666665
      value: {fileID: 21300000, guid: ac886b70faee06b478c1746a7989332e, type: 3}
    - time: 6.9166665
      value: {fileID: 21300000, guid: c7349d97349a02b4f84d279497ea6f8b, type: 3}
    - time: 7.0833335
      value: {fileID: 21300000, guid: 9b06e88da72a53249b2227832cbeda41, type: 3}
    - time: 7.1666665
      value: {fileID: 21300000, guid: 39961ad48adf55542b0f20f2444eb10b, type: 3}
    - time: 7.25
      value: {fileID: 21300000, guid: e2d078a4523bc9a448fa81e88716ef28, type: 3}
    - time: 7.3333335
      value: {fileID: 21300000, guid: 9b06e88da72a53249b2227832cbeda41, type: 3}
    - time: 7.5833335
      value: {fileID: 21300000, guid: 11e15a20b4d50d74e846e173f27440ea, type: 3}
    - time: 7.8333335
      value: {fileID: 21300000, guid: 9b06e88da72a53249b2227832cbeda41, type: 3}
    - time: 8
      value: {fileID: 21300000, guid: 9b06e88da72a53249b2227832cbeda41, type: 3}
    - time: 8.166667
      value: {fileID: 21300000, guid: d6cc41ee9019a4145b8d2cab506608d1, type: 3}
    - time: 8.25
      value: {fileID: 21300000, guid: 39449a6717315344880f3263cbb901b3, type: 3}
    - time: 8.5
      value: {fileID: 21300000, guid: e2d078a4523bc9a448fa81e88716ef28, type: 3}
    - time: 8.583333
      value: {fileID: 21300000, guid: e12e3a7a4438d2040aefc480b1622337, type: 3}
    - time: 8.666667
      value: {fileID: 21300000, guid: e2d078a4523bc9a448fa81e88716ef28, type: 3}
    - time: 8.75
      value: {fileID: 21300000, guid: 59e43ccbc03234b49854cfc6144c808f, type: 3}
    - time: 8.833333
      value: {fileID: 21300000, guid: c52ef1f9f716a3f40a17b4f1ce2650e1, type: 3}
    - time: 9.083333
      value: {fileID: 21300000, guid: e12e3a7a4438d2040aefc480b1622337, type: 3}
    - time: 9.166667
      value: {fileID: 21300000, guid: 59e43ccbc03234b49854cfc6144c808f, type: 3}
    - time: 9.25
      value: {fileID: 21300000, guid: c52ef1f9f716a3f40a17b4f1ce2650e1, type: 3}
    - time: 9.333333
      value: {fileID: 21300000, guid: ac886b70faee06b478c1746a7989332e, type: 3}
    - time: 9.5
      value: {fileID: 21300000, guid: ac886b70faee06b478c1746a7989332e, type: 3}
    - time: 9.666667
      value: {fileID: 21300000, guid: 9b06e88da72a53249b2227832cbeda41, type: 3}
    attribute: m_Sprite
    path: 
    classID: 212
    script: {fileID: 0}
  m_SampleRate: 12
  m_WrapMode: 0
  m_Bounds:
    m_Center: {x: 0, y: 0, z: 0}
    m_Extent: {x: 0, y: 0, z: 0}
  m_ClipBindingConstant:
    genericBindings:
    - path: 0
      attribute: 0
      script: {fileID: 0}
      classID: 212
      customType: 23
      isPPtrCurve: 1
    pptrCurveMapping:
    - {fileID: 21300000, guid: c7349d97349a02b4f84d279497ea6f8b, type: 3}
    - {fileID: 21300000, guid: 39961ad48adf55542b0f20f2444eb10b, type: 3}
    - {fileID: 21300000, guid: 11e15a20b4d50d74e846e173f27440ea, type: 3}
    - {fileID: 21300000, guid: d6cc41ee9019a4145b8d2cab506608d1, type: 3}
    - {fileID: 21300000, guid: 39449a6717315344880f3263cbb901b3, type: 3}
    - {fileID: 21300000, guid: ac886b70faee06b478c1746a7989332e, type: 3}
    - {fileID: 21300000, guid: 9b06e88da72a53249b2227832cbeda41, type: 3}
    - {fileID: 21300000, guid: 59e43ccbc03234b49854cfc6144c808f, type: 3}
    - {fileID: 21300000, guid: c52ef1f9f716a3f40a17b4f1ce2650e1, type: 3}
    - {fileID: 21300000, guid: e2d078a4523bc9a448fa81e88716ef28, type: 3}
    - {fileID: 21300000, guid: 59e43ccbc03234b49854cfc6144c808f, type: 3}
    - {fileID: 21300000, guid: c52ef1f9f716a3f40a17b4f1ce2650e1, type: 3}
    - {fileID: 21300000, guid: ac886b70faee06b478c1746a7989332e, type: 3}
    - {fileID: 21300000, guid: e12e3a7a4438d2040aefc480b1622337, type: 3}
    - {fileID: 21300000, guid: 9b06e88da72a53249b2227832cbeda41, type: 3}
    - {fileID: 21300000, guid: e12e3a7a4438d2040aefc480b1622337, type: 3}
    - {fileID: 21300000, guid: 9b06e88da72a53249b2227832cbeda41, type: 3}
    - {fileID: 21300000, guid: e12e3a7a4438d2040aefc480b1622337, type: 3}
    - {fileID: 21300000, guid: 39449a6717315344880f3263cbb901b3, type: 3}
    - {fileID: 21300000, guid: ac886b70faee06b478c1746a7989332e, type: 3}
    - {fileID: 21300000, guid: ac886b70faee06b478c1746a7989332e, type: 3}
    - {fileID: 21300000, guid: d6cc41ee9019a4145b8d2cab506608d1, type: 3}
    - {fileID: 21300000, guid: 11e15a20b4d50d74e846e173f27440ea, type: 3}
    - {fileID: 21300000, guid: 39961ad48adf55542b0f20f2444eb10b, type: 3}
    - {fileID: 21300000, guid: e12e3a7a4438d2040aefc480b1622337, type: 3}
    - {fileID: 21300000, guid: c7349d97349a02b4f84d279497ea6f8b, type: 3}
    - {fileID: 21300000, guid: 59e43ccbc03234b49854cfc6144c808f, type: 3}
    - {fileID: 21300000, guid: c52ef1f9f716a3f40a17b4f1ce2650e1, type: 3}
    - {fileID: 21300000, guid: ac886b70faee06b478c1746a7989332e, type: 3}
    - {fileID: 21300000, guid: c52ef1f9f716a3f40a17b4f1ce2650e1, type: 3}
    - {fileID: 21300000, guid: e12e3a7a4438d2040aefc480b1622337, type: 3}
    - {fileID: 21300000, guid: 9b06e88da72a53249b2227832cbeda41, type: 3}
    - {fileID: 21300000, guid: c52ef1f9f716a3f40a17b4f1ce2650e1, type: 3}
    - {fileID: 21300000, guid: ac886b70faee06b478c1746a7989332e, type: 3}
    - {fileID: 21300000, guid: c52ef1f9f716a3f40a17b4f1ce2650e1, type: 3}
    - {fileID: 21300000, guid: 9b06e88da72a53249b2227832cbeda41, type: 3}
    - {fileID: 21300000, guid: ac886b70faee06b478c1746a7989332e, type: 3}
    - {fileID: 21300000, guid: ac886b70faee06b478c1746a7989332e, type: 3}
    - {fileID: 21300000, guid: 9b06e88da72a53249b2227832cbeda41, type: 3}
    - {fileID: 21300000, guid: c7349d97349a02b4f84d279497ea6f8b, type: 3}
    - {fileID: 21300000, guid: 39961ad48adf55542b0f20f2444eb10b, type: 3}
    - {fileID: 21300000, guid: 11e15a20b4d50d74e846e173f27440ea, type: 3}
    - {fileID: 21300000, guid: d6cc41ee9019a4145b8d2cab506608d1, type: 3}
    - {fileID: 21300000, guid: 39449a6717315344880f3263cbb901b3, type: 3}
    - {fileID: 21300000, guid: e2d078a4523bc9a448fa81e88716ef28, type: 3}
    - {fileID: 21300000, guid: 59e43ccbc03234b49854cfc6144c808f, type: 3}
    - {fileID: 21300000, guid: c52ef1f9f716a3f40a17b4f1ce2650e1, type: 3}
    - {fileID: 21300000, guid: ac886b70faee06b478c1746a7989332e, type: 3}
    - {fileID: 21300000, guid: e12e3a7a4438d2040aefc480b1622337, type: 3}
    - {fileID: 21300000, guid: 9b06e88da72a53249b2227832cbeda41, type: 3}
    - {fileID: 21300000, guid: d6cc41ee9019a4145b8d2cab506608d1, type: 3}
    - {fileID: 21300000, guid: e12e3a7a4438d2040aefc480b1622337, type: 3}
    - {fileID: 21300000, guid: e12e3a7a4438d2040aefc480b1622337, type: 3}
    - {fileID: 21300000, guid: 59e43ccbc03234b49854cfc6144c808f, type: 3}
    - {fileID: 21300000, guid: d6cc41ee9019a4145b8d2cab506608d1, type: 3}
    - {fileID: 21300000, guid: 39449a6717315344880f3263cbb901b3, type: 3}
    - {fileID: 21300000, guid: c52ef1f9f716a3f40a17b4f1ce2650e1, type: 3}
    - {fileID: 21300000, guid: 59e43ccbc03234b49854cfc6144c808f, type: 3}
    - {fileID: 21300000, guid: d6cc41ee9019a4145b8d2cab506608d1, type: 3}
    - {fileID: 21300000, guid: ac886b70faee06b478c1746a7989332e, type: 3}
    - {fileID: 21300000, guid: c52ef1f9f716a3f40a17b4f1ce2650e1, type: 3}
    - {fileID: 21300000, guid: 59e43ccbc03234b49854cfc6144c808f, type: 3}
    - {fileID: 21300000, guid: 39449a6717315344880f3263cbb901b3, type: 3}
    - {fileID: 21300000, guid: c52ef1f9f716a3f40a17b4f1ce2650e1, type: 3}
    - {fileID: 21300000, guid: e12e3a7a4438d2040aefc480b1622337, type: 3}
    - {fileID: 21300000, guid: 9b06e88da72a53249b2227832cbeda41, type: 3}
    - {fileID: 21300000, guid: ac886b70faee06b478c1746a7989332e, type: 3}
    - {fileID: 21300000, guid: c7349d97349a02b4f84d279497ea6f8b, type: 3}
    - {fileID: 21300000, guid: 9b06e88da72a53249b2227832cbeda41, type: 3}
    - {fileID: 21300000, guid: 39961ad48adf55542b0f20f2444eb10b, type: 3}
    - {fileID: 21300000, guid: e2d078a4523bc9a448fa81e88716ef28, type: 3}
    - {fileID: 21300000, guid: 9b06e88da72a53249b2227832cbeda41, type: 3}
    - {fileID: 21300000, guid: 11e15a20b4d50d74e846e173f27440ea, type: 3}
    - {fileID: 21300000, guid: 9b06e88da72a53249b2227832cbeda41, type: 3}
    - {fileID: 21300000, guid: 9b06e88da72a53249b2227832cbeda41, type: 3}
    - {fileID: 21300000, guid: d6cc41ee9019a4145b8d2cab506608d1, type: 3}
    - {fileID: 21300000, guid: 39449a6717315344880f3263cbb901b3, type: 3}
    - {fileID: 21300000, guid: e2d078a4523bc9a448fa81e88716ef28, type: 3}
    - {fileID: 21300000, guid: e12e3a7a4438d2040aefc480b1622337, type: 3}
    - {fileID: 21300000, guid: e2d078a4523bc9a448fa81e88716ef28, type: 3}
    - {fileID: 21300000, guid: 59e43ccbc03234b49854cfc6144c808f, type: 3}
    - {fileID: 21300000, guid: c52ef1f9f716a3f40a17b4f1ce2650e1, type: 3}
    - {fileID: 21300000, guid: e12e3a7a4438d2040aefc480b1622337, type: 3}
    - {fileID: 21300000, guid: 59e43ccbc03234b49854cfc6144c808f, type: 3}
    - {fileID: 21300000, guid: c52ef1f9f716a3f40a17b4f1ce2650e1, type: 3}
    - {fileID: 21300000, guid: ac886b70faee06b478c1746a7989332e, type: 3}
    - {fileID: 21300000, guid: ac886b70faee06b478c1746a7989332e, type: 3}
    - {fileID: 21300000, guid: 9b06e88da72a53249b2227832cbeda41, type: 3}
  m_AnimationClipSettings:
    serializedVersion: 2
    m_AdditiveReferencePoseClip: {fileID: 0}
    m_AdditiveReferencePoseTime: 0
    m_StartTime: 0
    m_StopTime: 9.75
    m_OrientationOffsetY: 0
    m_Level: 0
    m_CycleOffset: 0
    m_HasAdditiveReferencePose: 0
    m_LoopTime: 1
    m_LoopBlend: 0
    m_LoopBlendOrientation: 0
    m_LoopBlendPositionY: 0
    m_LoopBlendPositionXZ: 0
    m_KeepOriginalOrientation: 0
    m_KeepOriginalPositionY: 1
    m_KeepOriginalPositionXZ: 0
    m_HeightFromFeet: 0
    m_Mirror: 0
  m_EditorCurves: []
  m_EulerEditorCurves: []
  m_HasGenericRootTransform: 0
  m_HasMotionFloatCurves: 0
  m_GenerateMotionCurves: 0
  m_IsEmpty: 0
  m_Events: []
